{"count":94,"next":"https://api.heysummit.com/api/talks/?event=5573&page=6","previous":"https://api.heysummit.com/api/talks/?event=5573&page=4","results":[{"id":101966,"title":"Securely Handling Fonts in PDFs - Part 2 ( 2pm BST)","date":"2020-06-17T13:45:00","event":"https://api.heysummit.com/api/v2/events/5573/","speakers":[{"id":101304,"event":5573,"first_name":"Elvin","last_name":"White","company":null,"company_title":null,"headshot":"https://s3.amazonaws.com/heysummit-production/media/defaults/user_default_image.png","expert_creds":null,"bio":null,"is_active":true}],"categories":[{"id":194181,"event":5573,"title":"CDR","description":""}],"is_active":true,"is_featured":false},{"id":98198,"title":"Who is the CISO? Nobody knows (2pm BST)","date":"2020-06-17T13:45:00","event":"https://api.heysummit.com/api/v2/events/5573/","speakers":[{"id":76446,"event":5573,"first_name":"Dinis","last_name":"Cruz","company":"Open Security Summit CIC","company_title":null,"headshot":"https://s3.amazonaws.com/heysummit-production/media/uploads/events/open-security-summit-2020/2TpHAUjVvDQFcpBwmuHqSj.png","expert_creds":"CISO and SVP Engineering at Glasswall, Transformation agent, project leader of OWASP SBot and O2 Platform projects","bio":"Dinis Cruz is the CISO and SVP of engineering of the UK startup Glasswall. Dinis is a Transformation Agent, focused on creating teams and environments where security is an enabler and accelerator for the business, while securing and protecting the digital assets from existing threats. Dinis was nominated for CISO of the Year 2019 at #CyberSecurityAwards\r\n\r\nDinis is also writing a book called Generation Z Developers (but useful for all Generations) available from Amazon:","is_active":true},{"id":90458,"event":5573,"first_name":"Phil","last_name":"Huggins","company":"CISO Mentor","company_title":"Director","headshot":"https://s3.amazonaws.com/heysummit-production/media/uploads/events/open-security-summit-2020/LgdnFdYhR6GsEkh6QtGtZR.jpeg","expert_creds":"Resilience, Security Leadership and Risk Science. \r\n\r\nUncon, OWASP, CISO Mentor, Zava. \r\nOpen Information Security Risk Universe: https://oisru.org","bio":"I am a proven security leader providing advice as an independent consultant with over 20 years of experience. I am a delivery-focused, chartered, security and risk professional with extensive experience of governance, management, system engineering and practical architecture across a wide range of disciplines and technologies. I am experienced in briefing and presenting cybersecurity risk concepts to boards and training NEDs.\r\n\r\nI have designed and operated security for critical national infrastructure and sensitive government. I have advised and managed global financial services organisations and advised national regulators on cyber resilience and cybersecurity. I was a member of the Cross Market Operational Resilience Group's Cyber Coordination Group and have also been a private sector representative on multiple occasions to the Financial Stability Board on cybersecurity regulations. I am currently a member of the UK Cyber Policy Working Group advising the Department of Culture, Media and Sport.","is_active":true},{"id":90456,"event":5573,"first_name":"Alan","last_name":"Jenkins","company":"Cyber Security Navigator Ltd","company_title":"Principal Consultant","headshot":"https://s3.amazonaws.com/heysummit-production/media/uploads/events/open-security-summit-2020/fUFg9yoo7btaAPuBv44wJm.jpeg","expert_creds":"A security practitioner of some 31 years standing. Former Group CISO @ FTSE100, currently an independent consultant & CISO-in-Residence @CyLonLab.","bio":"","is_active":true},{"id":90460,"event":5573,"first_name":"Tony","last_name":"Richards","company":"EY","company_title":"Technical Director","headshot":"https://s3.amazonaws.com/heysummit-production/media/uploads/events/open-security-summit-2020/ftS2ErEq2mtPH6xETjuidH.png","expert_creds":"Security Strategist, vCISO, Cloud Security Evangelist, Privacy Champion, Wardley Mapper. #Settler, #GdsTeam #GCloud #MoJ #CLAS #Veteran","bio":"","is_active":true}],"categories":[{"id":156632,"event":5573,"title":"CISO and Risk Management","description":"Sessions focusing on CISO areas of concern and making security scale"}],"is_active":true,"is_featured":false},{"id":98197,"title":"Investing in Security (1pm BST)","date":"2020-06-17T12:45:00","event":"https://api.heysummit.com/api/v2/events/5573/","speakers":[{"id":90455,"event":5573,"first_name":"Danny","last_name":"Lopez","company":"Glasswall Solutions","company_title":"CEO","headshot":"https://s3.amazonaws.com/heysummit-production/media/uploads/events/open-security-summit-2020/rF8YKKqkZWqTPSRxWGg444.jpg","expert_creds":"","bio":"Danny has enjoyed a successful international career in banking, government, diplomacy and technology. Previous roles include COO at UK-based technology company Blippar; British Consul General to New York; CEO of London & Partners; Marketing Director at the UK’s Department for International Trade; and a number of senior international positions at Barclays Bank.","is_active":true}],"categories":[{"id":156632,"event":5573,"title":"CISO and Risk Management","description":"Sessions focusing on CISO areas of concern and making security scale"}],"is_active":false,"is_featured":false},{"id":106523,"title":"Threatmodel tool demos - Wednesday  (11am BST)","date":"2020-06-17T10:45:00","event":"https://api.heysummit.com/api/v2/events/5573/","speakers":[{"id":100098,"event":5573,"first_name":"Fraser","last_name":"Scott","company":null,"company_title":null,"headshot":"https://s3.amazonaws.com/heysummit-production/media/defaults/user_default_image.png","expert_creds":"","bio":"","is_active":true},{"id":90419,"event":5573,"first_name":"Steven","last_name":"Wierckx","company":null,"company_title":null,"headshot":"https://s3.amazonaws.com/heysummit-production/media/defaults/user_default_image.png","expert_creds":"","bio":"","is_active":true},{"id":100100,"event":5573,"first_name":"Izar","last_name":"Tarandach","company":null,"company_title":null,"headshot":"https://s3.amazonaws.com/heysummit-production/media/uploads/events/open-security-summit-2020/2x2ZMLgkUNPZyStwne3FA8.jpg","expert_creds":"Just a guy that thinks about threat modeling.","bio":"Sr. Security Architect at a large financial institution, previously at Autodesk, DellEMC, IBM and others. Been doing security for the past 20+ years in various forms. Currently focusing on secure development, mostly threat modeling and SSDLC. Happy to talk your ears off. Will code for blinkenlichten.","is_active":true}],"categories":[{"id":156637,"event":5573,"title":"Threat Modeling","description":"Sessions focusing on Threat Modeling\r\nFor beginner level intro to the topic, join the pre-summit training event https://pre-summit-training-sessions.heysummit.com/\r\nIf you missed it, checkout video replays on our youtube channel https://www.youtube.com/channel/UCyse9b_2JLJUxKMLgSpOL-Q/"}],"is_active":true,"is_featured":false},{"id":102317,"title":"Real world Cloud Security challenges (11pm BST)","date":"2020-06-17T10:45:00","event":"https://api.heysummit.com/api/v2/events/5573/","speakers":[{"id":76446,"event":5573,"first_name":"Dinis","last_name":"Cruz","company":"Open Security Summit CIC","company_title":null,"headshot":"https://s3.amazonaws.com/heysummit-production/media/uploads/events/open-security-summit-2020/2TpHAUjVvDQFcpBwmuHqSj.png","expert_creds":"CISO and SVP Engineering at Glasswall, Transformation agent, project leader of OWASP SBot and O2 Platform projects","bio":"Dinis Cruz is the CISO and SVP of engineering of the UK startup Glasswall. Dinis is a Transformation Agent, focused on creating teams and environments where security is an enabler and accelerator for the business, while securing and protecting the digital assets from existing threats. Dinis was nominated for CISO of the Year 2019 at #CyberSecurityAwards\r\n\r\nDinis is also writing a book called Generation Z Developers (but useful for all Generations) available from Amazon:","is_active":true}],"categories":[{"id":156633,"event":5573,"title":"Cloud Security","description":"Sessions focusing on cloud security and automation"}],"is_active":false,"is_featured":false},{"id":101968,"title":"Securely Handling Fonts in PDFs - Part 1 (11pm BST)","date":"2020-06-17T10:45:00","event":"https://api.heysummit.com/api/v2/events/5573/","speakers":[{"id":101304,"event":5573,"first_name":"Elvin","last_name":"White","company":null,"company_title":null,"headshot":"https://s3.amazonaws.com/heysummit-production/media/defaults/user_default_image.png","expert_creds":null,"bio":null,"is_active":true}],"categories":[{"id":187368,"event":5573,"title":"Security Standards","description":""},{"id":194181,"event":5573,"title":"CDR","description":""}],"is_active":true,"is_featured":false},{"id":98194,"title":"CEOs and CISOs roundtable (11am BST)","date":"2020-06-17T10:45:00","event":"https://api.heysummit.com/api/v2/events/5573/","speakers":[{"id":76446,"event":5573,"first_name":"Dinis","last_name":"Cruz","company":"Open Security Summit CIC","company_title":null,"headshot":"https://s3.amazonaws.com/heysummit-production/media/uploads/events/open-security-summit-2020/2TpHAUjVvDQFcpBwmuHqSj.png","expert_creds":"CISO and SVP Engineering at Glasswall, Transformation agent, project leader of OWASP SBot and O2 Platform projects","bio":"Dinis Cruz is the CISO and SVP of engineering of the UK startup Glasswall. Dinis is a Transformation Agent, focused on creating teams and environments where security is an enabler and accelerator for the business, while securing and protecting the digital assets from existing threats. Dinis was nominated for CISO of the Year 2019 at #CyberSecurityAwards\r\n\r\nDinis is also writing a book called Generation Z Developers (but useful for all Generations) available from Amazon:","is_active":true},{"id":90455,"event":5573,"first_name":"Danny","last_name":"Lopez","company":"Glasswall Solutions","company_title":"CEO","headshot":"https://s3.amazonaws.com/heysummit-production/media/uploads/events/open-security-summit-2020/rF8YKKqkZWqTPSRxWGg444.jpg","expert_creds":"","bio":"Danny has enjoyed a successful international career in banking, government, diplomacy and technology. Previous roles include COO at UK-based technology company Blippar; British Consul General to New York; CEO of London & Partners; Marketing Director at the UK’s Department for International Trade; and a number of senior international positions at Barclays Bank.","is_active":true},{"id":101034,"event":5573,"first_name":"Kevin","last_name":"Fielder","company":"Just Eat","company_title":"CISO","headshot":"https://s3.amazonaws.com/heysummit-production/media/uploads/events/open-security-summit-2020/kcxNdijGNrVGDrL4vBYQXJ.jpeg","expert_creds":null,"bio":null,"is_active":true},{"id":101033,"event":5573,"first_name":"Ante","last_name":"Gulam","company":"SkyScanner","company_title":"CISO","headshot":"https://s3.amazonaws.com/heysummit-production/media/uploads/events/open-security-summit-2020/32ZPMMzD4cnebZFBCDPRB2.jpg","expert_creds":null,"bio":null,"is_active":true}],"categories":[{"id":156632,"event":5573,"title":"CISO and Risk Management","description":"Sessions focusing on CISO areas of concern and making security scale"}],"is_active":true,"is_featured":false},{"id":106797,"title":"Keynote - Security from CEO perspective and modern team structures","date":"2020-06-17T10:30:00","event":"https://api.heysummit.com/api/v2/events/5573/","speakers":[{"id":90455,"event":5573,"first_name":"Danny","last_name":"Lopez","company":"Glasswall Solutions","company_title":"CEO","headshot":"https://s3.amazonaws.com/heysummit-production/media/uploads/events/open-security-summit-2020/rF8YKKqkZWqTPSRxWGg444.jpg","expert_creds":"","bio":"Danny has enjoyed a successful international career in banking, government, diplomacy and technology. Previous roles include COO at UK-based technology company Blippar; British Consul General to New York; CEO of London & Partners; Marketing Director at the UK’s Department for International Trade; and a number of senior international positions at Barclays Bank.","is_active":true}],"categories":[{"id":156632,"event":5573,"title":"CISO and Risk Management","description":"Sessions focusing on CISO areas of concern and making security scale"},{"id":171378,"event":5573,"title":"Miscellaneous","description":""}],"is_active":true,"is_featured":false},{"id":98467,"title":"Agile in Cybersecurity (9pm BST)","date":"2020-06-16T20:45:00","event":"https://api.heysummit.com/api/v2/events/5573/","speakers":[{"id":90449,"event":5573,"first_name":"Leila","last_name":"Rao","company":"AgileXtended","company_title":"Founder","headshot":"https://s3.amazonaws.com/heysummit-production/media/defaults/user_default_image.png","expert_creds":"Experienced enterprise Lean-Agile coach\r\nFacilitated agile transformation for cybersecurity teams and initiatives\r\nAuthor of the \"Compass for Agility\"","bio":"Leila is enterprise Lean-Agile consultant who has facilitated sustainable transformations for a wide range of organizations. Her specialty is combining principles from multiple disciplines to co-create customized solutions that amplify value and deliver alignment between business activities and strategic organizational outcomes.\r\n\r\nShe is the author of the Compass for Agility, which explores a pragmatic, multi-disciplinary approach that enables organizations to navigate challenging environments.\r\n \r\nAdditionally, she is now applying the same expertise and her own experiences to increase the value and visibility of women through self-organization, collective empowerment and structural realignment as the co-founder of Lean In Agile.","is_active":true}],"categories":[{"id":156635,"event":5573,"title":"DevSecOps","description":"Sessions focusing on the DevSecOps tools and techniques to embed security as part of CI/CD pipelines"}],"is_active":true,"is_featured":false},{"id":95908,"title":"Risk Mapping - Applying Risk overlay with maps and security decision making (8pm BST)","date":"2020-06-16T19:45:00","event":"https://api.heysummit.com/api/v2/events/5573/","speakers":[{"id":90456,"event":5573,"first_name":"Alan","last_name":"Jenkins","company":"Cyber Security Navigator Ltd","company_title":"Principal Consultant","headshot":"https://s3.amazonaws.com/heysummit-production/media/uploads/events/open-security-summit-2020/fUFg9yoo7btaAPuBv44wJm.jpeg","expert_creds":"A security practitioner of some 31 years standing. Former Group CISO @ FTSE100, currently an independent consultant & CISO-in-Residence @CyLonLab.","bio":"","is_active":true},{"id":81711,"event":5573,"first_name":"Simon","last_name":"Wardley","company":null,"company_title":null,"headshot":"https://s3.amazonaws.com/heysummit-production/media/uploads/events/open-security-summit-2020/hRofkrwURS8NvG2GxZ6wLD.jpg","expert_creds":"I like ducks, they're fowl but not through choice.  Created #Wardleymaps ... not the hashtag but the field. Chaotic Evil, Thought Lord. RT ≠ +1","bio":"Explorer of uncharted spaces. Twice voted in the UKTech50, Judge in Nesta's Open Banking and Netflix's Open Source competitions, Co-Chair of OSCON Europe, Cloud Camp and Map Camp. Regular speaker on the global tech circuit.","is_active":true},{"id":90419,"event":5573,"first_name":"Steven","last_name":"Wierckx","company":null,"company_title":null,"headshot":"https://s3.amazonaws.com/heysummit-production/media/defaults/user_default_image.png","expert_creds":"","bio":"","is_active":true},{"id":90448,"event":5573,"first_name":"Avi","last_name":"Douglen","company":"Bounce Security","company_title":"Founder and CEO","headshot":"https://s3.amazonaws.com/heysummit-production/media/uploads/events/open-security-summit-2020/Jo4j9nWxdVSyh6eBXr7shM.png","expert_creds":"","bio":"","is_active":true},{"id":90439,"event":5573,"first_name":"Ben","last_name":"Schofield","company":null,"company_title":null,"headshot":"https://s3.amazonaws.com/heysummit-production/media/defaults/user_default_image.png","expert_creds":null,"bio":null,"is_active":true}],"categories":[{"id":156639,"event":5573,"title":"Wardley Maps","description":"Sessions focusing on the use of Wardley Maps in Security"}],"is_active":true,"is_featured":false}]}