{"count":94,"next":"https://api.heysummit.com/api/talks/?event=5573&page=5","previous":"https://api.heysummit.com/api/talks/?event=5573&page=3","results":[{"id":103366,"title":"Keynote - Jane Frankland InSecurity (10:30am BST)","date":"2020-06-18T10:30:00","event":"https://api.heysummit.com/api/v2/events/5573/","speakers":[{"id":97377,"event":5573,"first_name":"Jane","last_name":"Frankland","company":null,"company_title":"Founder","headshot":"https://s3.amazonaws.com/heysummit-production/media/uploads/events/open-security-summit-2020/QXyFWarj8CjZkcgfxqqHzT.jpeg","expert_creds":"Award-winning cybersecurity entrepreneur, bestselling author, keynote speaker & awards judge. Impacting leaders & women.","bio":"ane Frankland is an award-winning entrepreneur, best-selling author and international speaker. She is the Founder of Cyber Security Capital, a training and consulting company. She specialises in business strategy and high performance and is a world authority on attracting and retaining women in cybersecurity. Jane works with a wide range of clients from leaders at listed multinationals and fast-growth startups to practitioners, consultants and subject matter experts. This year IFSEC Global named her as as one of the world’s top twenty influencers and LinkedIn chose her as a LinkedIn Top Voices 2018.\r\n\r\nJane has over twenty years’ worth of experience in cyber security, has built and sold her own global penetration testing firm and held executive positions at renowned consultancies. Over the years she has launched, created and been actively involved in numerous accreditation organisations, forums and schemes including OWASP, CREST and Cyber Essentials. She has served as a Board Advisor for Club CISO, and as a judge for the European Technology Awards and the SC Awards (UK and USA). She is currently a Board Advisor for the BlackHat Executive Summit, an Editorial Board Advisor for SC Media UK, and a judge for the SC Awards UK and The Business Book Awards. She authors many articles, is regularly featured in industry and iconic British media and sought after for keynotes.  Jane has a BA (Hons) in Woven Textile Design and is a Fellow of the Institute of Sales and Marketing Management (ISMM).\r\n\r\nJane is driven by her three children, an obsession to deliver outstanding quality and to make a positive difference in the world. Believing passionately in entrepreneurship, freedom and empowerment her vision is to strengthen cyber space with an optimised, diverse cybersecurity workforce. It's why she authored IN Security, and created the IN Security Movement and Tribe that stands behind a mission to connect, inspire and empower cybersecurity professionals. The question you'll hear her ask the most in business is ‘what's your objective.'  The reason why is obvious. Unless you know why you're doing something why do it at all. Time is precious!","is_active":true}],"categories":[{"id":156632,"event":5573,"title":"CISO and Risk Management","description":"Sessions focusing on CISO areas of concern and making security scale"},{"id":171378,"event":5573,"title":"Miscellaneous","description":""}],"is_active":true,"is_featured":true},{"id":98465,"title":"NETFLIX PARTY (From 9pm BST)","date":"2020-06-17T21:00:00","event":"https://api.heysummit.com/api/v2/events/5573/","speakers":[{"id":90402,"event":5573,"first_name":"Open Security","last_name":"Summit 2020","company":null,"company_title":null,"headshot":"https://s3.amazonaws.com/heysummit-production/media/uploads/events/open-security-summit-2020/wp2zBUqGAybMyFYDZRkhQR.png","expert_creds":null,"bio":null,"is_active":true}],"categories":[{"id":178101,"event":5573,"title":"SOCIAL","description":"fun and games"}],"is_active":true,"is_featured":false},{"id":101970,"title":"Securely Handling Fonts in PDFs - Part 4 (8pm BST)","date":"2020-06-17T19:45:00","event":"https://api.heysummit.com/api/v2/events/5573/","speakers":[{"id":101304,"event":5573,"first_name":"Elvin","last_name":"White","company":null,"company_title":null,"headshot":"https://s3.amazonaws.com/heysummit-production/media/defaults/user_default_image.png","expert_creds":null,"bio":null,"is_active":true}],"categories":[{"id":194181,"event":5573,"title":"CDR","description":""}],"is_active":true,"is_featured":false},{"id":95790,"title":"Lightning Talk - Cybersecurity in M&A (a CISO's guide) (7:40pm BST)","date":"2020-06-17T19:40:00","event":"https://api.heysummit.com/api/v2/events/5573/","speakers":[{"id":90501,"event":5573,"first_name":"Paul","last_name":"Harragan","company":"EY","company_title":"Director","headshot":"https://s3.amazonaws.com/heysummit-production/media/uploads/events/open-security-summit-2020/3zkjHvAVrRKqMjzEuAoZHW.jpeg","expert_creds":"","bio":"Paul Harragan is a Director in EY’s Strategy & Transactions team specialising in Information Security, Cyber Defence and IT transformation. \r\nHe advises both private equity and corporates on cybersecurity strategy, risk and transformation across the capital agenda. \r\nPaul has led Cybersecurity diligence on deals with a combined equity value of over $50bn, across multiple industries and on a global basis. \r\nHe works across the transaction lifecycle to helps investors define, create and protect value. Paul works across industries but has a particular focus on TMT, Banking, Capital Markets, Digital and Retail.\r\nPaul is a qualified Ethical Hacker and Security Solutions Architect. Paul is a frequent speaker on cybersecurity and has spoken at events such as BlackHat and OWASP events.","is_active":true}],"categories":[{"id":156632,"event":5573,"title":"CISO and Risk Management","description":"Sessions focusing on CISO areas of concern and making security scale"}],"is_active":true,"is_featured":false},{"id":102296,"title":"Modern Security Risk (5pm BST)","date":"2020-06-17T16:45:00","event":"https://api.heysummit.com/api/v2/events/5573/","speakers":[{"id":90458,"event":5573,"first_name":"Phil","last_name":"Huggins","company":"CISO Mentor","company_title":"Director","headshot":"https://s3.amazonaws.com/heysummit-production/media/uploads/events/open-security-summit-2020/LgdnFdYhR6GsEkh6QtGtZR.jpeg","expert_creds":"Resilience, Security Leadership and Risk Science. \r\n\r\nUncon, OWASP, CISO Mentor, Zava. \r\nOpen Information Security Risk Universe: https://oisru.org","bio":"I am a proven security leader providing advice as an independent consultant with over 20 years of experience. I am a delivery-focused, chartered, security and risk professional with extensive experience of governance, management, system engineering and practical architecture across a wide range of disciplines and technologies. I am experienced in briefing and presenting cybersecurity risk concepts to boards and training NEDs.\r\n\r\nI have designed and operated security for critical national infrastructure and sensitive government. I have advised and managed global financial services organisations and advised national regulators on cyber resilience and cybersecurity. I was a member of the Cross Market Operational Resilience Group's Cyber Coordination Group and have also been a private sector representative on multiple occasions to the Financial Stability Board on cybersecurity regulations. I am currently a member of the UK Cyber Policy Working Group advising the Department of Culture, Media and Sport.","is_active":true}],"categories":[{"id":156632,"event":5573,"title":"CISO and Risk Management","description":"Sessions focusing on CISO areas of concern and making security scale"}],"is_active":true,"is_featured":false},{"id":101969,"title":"Securely Handling Fonts in PDFs - Part 3 ( 5pm BST)","date":"2020-06-17T16:45:00","event":"https://api.heysummit.com/api/v2/events/5573/","speakers":[{"id":101304,"event":5573,"first_name":"Elvin","last_name":"White","company":null,"company_title":null,"headshot":"https://s3.amazonaws.com/heysummit-production/media/defaults/user_default_image.png","expert_creds":null,"bio":null,"is_active":true}],"categories":[{"id":194181,"event":5573,"title":"CDR","description":""}],"is_active":true,"is_featured":false},{"id":102297,"title":"Chaos Engineering - Cloud resilience (5pm BST)","date":"2020-06-17T16:45:00","event":"https://api.heysummit.com/api/v2/events/5573/","speakers":[{"id":90417,"event":5573,"first_name":"Petra","last_name":"Vukmirovic","company":"Glasswall Solutions","company_title":"InfoSec","headshot":"https://s3.amazonaws.com/heysummit-production/media/uploads/events/open-security-summit-2020/EBiNh4AHGsVEnubsCyeSW7.jpg","expert_creds":"","bio":"Medical doctor by background, currently Information Security and Digital Forensics Msc student. DevSecOps and Python enthusiast. Into Machine Learning. Hungry for knowledge.","is_active":true}],"categories":[{"id":156633,"event":5573,"title":"Cloud Security","description":"Sessions focusing on cloud security and automation"}],"is_active":false,"is_featured":false},{"id":92378,"title":"Overcoming Over-thinking & Over-engineering (5pm BST)","date":"2020-06-17T16:45:00","event":"https://api.heysummit.com/api/v2/events/5573/","speakers":[{"id":87023,"event":5573,"first_name":"Timucin","last_name":"Gelici","company":"HostingLand","company_title":"HostingLand","headshot":"https://s3.amazonaws.com/heysummit-production/media/defaults/user_default_image.png","expert_creds":null,"bio":null,"is_active":true}],"categories":[{"id":156635,"event":5573,"title":"DevSecOps","description":"Sessions focusing on the DevSecOps tools and techniques to embed security as part of CI/CD pipelines"}],"is_active":false,"is_featured":false},{"id":98223,"title":"Third party assurance (5pm BST)","date":"2020-06-17T16:45:00","event":"https://api.heysummit.com/api/v2/events/5573/","speakers":[{"id":92916,"event":5573,"first_name":"Demi","last_name":"Ben-Ari","company":"Panorays","company_title":"Co-Founder & CTO","headshot":"https://s3.amazonaws.com/heysummit-production/media/uploads/events/open-security-summit-2020/RUQuuFuPRhfVWZEDjLPNCA.jpeg","expert_creds":"Entrepreneur, Software Engineer, International Tech Speaker, Google Developers Expert, Having fun :)","bio":"Demi is an expert at building communities and networks — both online and offline. His technical background enables him to provide visibility into companies’ seemingly blind spots and build large systems to empower users through insight-sharing. Demi is a recognized Google Developers Expert, co-founder of “Big Things” — one of the largest big data communities — and of the local Google Developer Group Cloud. He is a renowned international speaker, presenting big data solutions and distributed and scalable systems to both technical and management teams.","is_active":true},{"id":90456,"event":5573,"first_name":"Alan","last_name":"Jenkins","company":"Cyber Security Navigator Ltd","company_title":"Principal Consultant","headshot":"https://s3.amazonaws.com/heysummit-production/media/uploads/events/open-security-summit-2020/fUFg9yoo7btaAPuBv44wJm.jpeg","expert_creds":"A security practitioner of some 31 years standing. Former Group CISO @ FTSE100, currently an independent consultant & CISO-in-Residence @CyLonLab.","bio":"","is_active":true},{"id":76717,"event":5573,"first_name":"Didar","last_name":"Gelici","company":null,"company_title":null,"headshot":"https://s3.amazonaws.com/heysummit-production/media/uploads/events/open-security-summit-2020/poJjQ9rHDxmPujRAeLKzJE.jpeg","expert_creds":"I am a cyber risk manager transitioning into appsec/devsecops. \r\nI am CISSP and CIPP/US but believe the developer led future is already here and want to be here for them to integrate security in their practices rather than gatekeeping and dictating how they should do their job.","bio":"I am deeply involved with three security non-profits, if you would like to collaborate with any of them come talk to me:\r\n Ladies of London Hacking Society - http://llhs.com\r\n SHeCISOExec - https://www.shecisoexec.org/\r\n Open Security Summit - https://open-security-summit.org/","is_active":true},{"id":90460,"event":5573,"first_name":"Tony","last_name":"Richards","company":"EY","company_title":"Technical Director","headshot":"https://s3.amazonaws.com/heysummit-production/media/uploads/events/open-security-summit-2020/ftS2ErEq2mtPH6xETjuidH.png","expert_creds":"Security Strategist, vCISO, Cloud Security Evangelist, Privacy Champion, Wardley Mapper. #Settler, #GdsTeam #GCloud #MoJ #CLAS #Veteran","bio":"","is_active":true}],"categories":[{"id":156632,"event":5573,"title":"CISO and Risk Management","description":"Sessions focusing on CISO areas of concern and making security scale"}],"is_active":true,"is_featured":false},{"id":98198,"title":"Who is the CISO? Nobody knows (2pm BST)","date":"2020-06-17T13:45:00","event":"https://api.heysummit.com/api/v2/events/5573/","speakers":[{"id":76446,"event":5573,"first_name":"Dinis","last_name":"Cruz","company":"Open Security Summit CIC","company_title":null,"headshot":"https://s3.amazonaws.com/heysummit-production/media/uploads/events/open-security-summit-2020/2TpHAUjVvDQFcpBwmuHqSj.png","expert_creds":"CISO and SVP Engineering at Glasswall, Transformation agent, project leader of OWASP SBot and O2 Platform projects","bio":"Dinis Cruz is the CISO and SVP of engineering of the UK startup Glasswall. Dinis is a Transformation Agent, focused on creating teams and environments where security is an enabler and accelerator for the business, while securing and protecting the digital assets from existing threats. Dinis was nominated for CISO of the Year 2019 at #CyberSecurityAwards\r\n\r\nDinis is also writing a book called Generation Z Developers (but useful for all Generations) available from Amazon:","is_active":true},{"id":90458,"event":5573,"first_name":"Phil","last_name":"Huggins","company":"CISO Mentor","company_title":"Director","headshot":"https://s3.amazonaws.com/heysummit-production/media/uploads/events/open-security-summit-2020/LgdnFdYhR6GsEkh6QtGtZR.jpeg","expert_creds":"Resilience, Security Leadership and Risk Science. \r\n\r\nUncon, OWASP, CISO Mentor, Zava. \r\nOpen Information Security Risk Universe: https://oisru.org","bio":"I am a proven security leader providing advice as an independent consultant with over 20 years of experience. I am a delivery-focused, chartered, security and risk professional with extensive experience of governance, management, system engineering and practical architecture across a wide range of disciplines and technologies. I am experienced in briefing and presenting cybersecurity risk concepts to boards and training NEDs.\r\n\r\nI have designed and operated security for critical national infrastructure and sensitive government. I have advised and managed global financial services organisations and advised national regulators on cyber resilience and cybersecurity. I was a member of the Cross Market Operational Resilience Group's Cyber Coordination Group and have also been a private sector representative on multiple occasions to the Financial Stability Board on cybersecurity regulations. I am currently a member of the UK Cyber Policy Working Group advising the Department of Culture, Media and Sport.","is_active":true},{"id":90456,"event":5573,"first_name":"Alan","last_name":"Jenkins","company":"Cyber Security Navigator Ltd","company_title":"Principal Consultant","headshot":"https://s3.amazonaws.com/heysummit-production/media/uploads/events/open-security-summit-2020/fUFg9yoo7btaAPuBv44wJm.jpeg","expert_creds":"A security practitioner of some 31 years standing. Former Group CISO @ FTSE100, currently an independent consultant & CISO-in-Residence @CyLonLab.","bio":"","is_active":true},{"id":90460,"event":5573,"first_name":"Tony","last_name":"Richards","company":"EY","company_title":"Technical Director","headshot":"https://s3.amazonaws.com/heysummit-production/media/uploads/events/open-security-summit-2020/ftS2ErEq2mtPH6xETjuidH.png","expert_creds":"Security Strategist, vCISO, Cloud Security Evangelist, Privacy Champion, Wardley Mapper. #Settler, #GdsTeam #GCloud #MoJ #CLAS #Veteran","bio":"","is_active":true}],"categories":[{"id":156632,"event":5573,"title":"CISO and Risk Management","description":"Sessions focusing on CISO areas of concern and making security scale"}],"is_active":true,"is_featured":false}]}