{"count":94,"next":"https://api.heysummit.com/api/talks/?event=5573&page=7","previous":"https://api.heysummit.com/api/talks/?event=5573&page=5","results":[{"id":98466,"title":"Making the business case for DevSecOps (8pm BST)","date":"2020-06-16T19:45:00","event":"https://api.heysummit.com/api/v2/events/5573/","speakers":[{"id":90464,"event":5573,"first_name":"David","last_name":"Prince","company":null,"company_title":null,"headshot":"https://s3.amazonaws.com/heysummit-production/media/uploads/events/open-security-summit-2020/fEfnDfufV6sbg2vda4dsSK.jpeg","expert_creds":"Director at Baringa Partners.   Cyber security specialist. Thoughts are my own, or at least I think they are?","bio":"I am a deeply passionate senior executive and industry speaker with considerable experience and demonstrated success in designing and delivering cyber and information security strategies for a variety of businesses and private clients. During my career I have helped my clients proactively manage their cyber and information security risk, as well as improve response capabilities to emerging and live data loss incidents and crises. I have gained significant experience in my career as an in-house cyber and information security leader as well as a trusted advisor and consultant, helping clients minimize business disruption and financial harm that often ensues data loss, whilst protecting reputation. \r\n\r\nSpecialities: Information Security Risk Management; Business Impact Analysis; Regulatory Compliance; Cloud Computing; Information Systems Auditing; Secure Architecture Design and Assessment; Policy Framework Design & Development; Application Security Best Practices; Education, Training, and Awareness Program Development, Management, & Delivery; Secure Business Solutions;  Encryption Key Management & PKI; Business Continuity & Disaster Recovery Planning; Data Loss Prevention","is_active":true},{"id":90449,"event":5573,"first_name":"Leila","last_name":"Rao","company":"AgileXtended","company_title":"Founder","headshot":"https://s3.amazonaws.com/heysummit-production/media/defaults/user_default_image.png","expert_creds":"Experienced enterprise Lean-Agile coach\r\nFacilitated agile transformation for cybersecurity teams and initiatives\r\nAuthor of the \"Compass for Agility\"","bio":"Leila is enterprise Lean-Agile consultant who has facilitated sustainable transformations for a wide range of organizations. Her specialty is combining principles from multiple disciplines to co-create customized solutions that amplify value and deliver alignment between business activities and strategic organizational outcomes.\r\n\r\nShe is the author of the Compass for Agility, which explores a pragmatic, multi-disciplinary approach that enables organizations to navigate challenging environments.\r\n \r\nAdditionally, she is now applying the same expertise and her own experiences to increase the value and visibility of women through self-organization, collective empowerment and structural realignment as the co-founder of Lean In Agile.","is_active":true}],"categories":[{"id":156635,"event":5573,"title":"DevSecOps","description":"Sessions focusing on the DevSecOps tools and techniques to embed security as part of CI/CD pipelines"}],"is_active":true,"is_featured":false},{"id":101164,"title":"Lightning Talk - Cybersecurity: What history teaches us (7.40pm BST)","date":"2020-06-16T19:40:00","event":"https://api.heysummit.com/api/v2/events/5573/","speakers":[{"id":95534,"event":5573,"first_name":"Naina","last_name":"Bhattacharya","company":"EY","company_title":null,"headshot":"https://s3.amazonaws.com/heysummit-production/media/uploads/events/open-security-summit-2020/AsWGd2HWeiGLCGEhWqMMJ7.jpg","expert_creds":"","bio":"Naina is a Director in EY's EMEIA Cybersecurity team, based in London. She has cross-industry experience working with clients on cybersecurity strategy and transformation. Most recently she has been working with the EY Cyber teams on a number of business transformation initiatives. She is a champion for diversity and inclusion, serving as EY Cybersecurity's EMEIA leader in this area.\r\n\r\nRecent speaking engagements include:\r\nPanelist, Third Party Security Management, TEISS London 2020\r\nSpeaker, 'Looking back at the last decade in security', ISF UK Conference London 2020\r\nKeynote Presentation, Elite UK CISO Summit,, Building Diverse Cybersecurity Teams, 2019\r\nPanelist, Cybersecurity, King's College Legal Tech and Emerging Technologies Conference 2019\r\nSpeaker, NCSC Cyber First Programme, Imperial College, 2019\r\nPanelist, ISF UK Summer Chapter Meeting, The Human Side of Cybersecurity, 2019 \r\nPanelist, EY India Women in Cyber event in New Delhi on building diverse teams, 2019\r\nKeynote Speaker on Diversity in Cybersecurity for the Symantec Women Action Network UK, 2019\r\nParticipated in several CISO roundtables throughout the year","is_active":true}],"categories":[{"id":156632,"event":5573,"title":"CISO and Risk Management","description":"Sessions focusing on CISO areas of concern and making security scale"}],"is_active":true,"is_featured":false},{"id":86058,"title":"Wardley Mapping and Security Architecture","date":"2020-06-16T17:55:00","event":"https://api.heysummit.com/api/v2/events/5573/","speakers":[{"id":76446,"event":5573,"first_name":"Dinis","last_name":"Cruz","company":"Open Security Summit CIC","company_title":null,"headshot":"https://s3.amazonaws.com/heysummit-production/media/uploads/events/open-security-summit-2020/2TpHAUjVvDQFcpBwmuHqSj.png","expert_creds":"CISO and SVP Engineering at Glasswall, Transformation agent, project leader of OWASP SBot and O2 Platform projects","bio":"Dinis Cruz is the CISO and SVP of engineering of the UK startup Glasswall. Dinis is a Transformation Agent, focused on creating teams and environments where security is an enabler and accelerator for the business, while securing and protecting the digital assets from existing threats. Dinis was nominated for CISO of the Year 2019 at #CyberSecurityAwards\r\n\r\nDinis is also writing a book called Generation Z Developers (but useful for all Generations) available from Amazon:","is_active":true},{"id":80996,"event":5573,"first_name":"Mario","last_name":"Platt","company":"Practical DevSecOps","company_title":"Strategy Director","headshot":"https://s3.amazonaws.com/heysummit-production/media/uploads/events/open-security-summit-2020/vYfniNyb6D4W8rSvmZ9jDU.jpg","expert_creds":"easonable Assurance against Predictable threats. Infosec / Cyber / Risk Mgt. At the edges of these with Biz, Complexity, Wardley Mapping and SPT","bio":"An accomplished, highly respected and innovative Information Security Expert, with a multi-faceted track record of expertise ranging from penetration testing, operations, product management, design authority, risk management and governance; with success of attaining and maintaining compliance to security frameworks, across Telecommunications, Retail,  Healthcare and Public Sector organisations throughout the last 15+ years.","is_active":true}],"categories":[{"id":156639,"event":5573,"title":"Wardley Maps","description":"Sessions focusing on the use of Wardley Maps in Security"}],"is_active":false,"is_featured":false},{"id":95906,"title":"Team Topologies & PSD & Squads & Tribes (5pm BST) 2 Chilli","date":"2020-06-16T16:45:00","event":"https://api.heysummit.com/api/v2/events/5573/","speakers":[{"id":76446,"event":5573,"first_name":"Dinis","last_name":"Cruz","company":"Open Security Summit CIC","company_title":null,"headshot":"https://s3.amazonaws.com/heysummit-production/media/uploads/events/open-security-summit-2020/2TpHAUjVvDQFcpBwmuHqSj.png","expert_creds":"CISO and SVP Engineering at Glasswall, Transformation agent, project leader of OWASP SBot and O2 Platform projects","bio":"Dinis Cruz is the CISO and SVP of engineering of the UK startup Glasswall. Dinis is a Transformation Agent, focused on creating teams and environments where security is an enabler and accelerator for the business, while securing and protecting the digital assets from existing threats. Dinis was nominated for CISO of the Year 2019 at #CyberSecurityAwards\r\n\r\nDinis is also writing a book called Generation Z Developers (but useful for all Generations) available from Amazon:","is_active":true},{"id":81711,"event":5573,"first_name":"Simon","last_name":"Wardley","company":null,"company_title":null,"headshot":"https://s3.amazonaws.com/heysummit-production/media/uploads/events/open-security-summit-2020/hRofkrwURS8NvG2GxZ6wLD.jpg","expert_creds":"I like ducks, they're fowl but not through choice.  Created #Wardleymaps ... not the hashtag but the field. Chaotic Evil, Thought Lord. RT ≠ +1","bio":"Explorer of uncharted spaces. Twice voted in the UKTech50, Judge in Nesta's Open Banking and Netflix's Open Source competitions, Co-Chair of OSCON Europe, Cloud Camp and Map Camp. Regular speaker on the global tech circuit.","is_active":true},{"id":90460,"event":5573,"first_name":"Tony","last_name":"Richards","company":"EY","company_title":"Technical Director","headshot":"https://s3.amazonaws.com/heysummit-production/media/uploads/events/open-security-summit-2020/ftS2ErEq2mtPH6xETjuidH.png","expert_creds":"Security Strategist, vCISO, Cloud Security Evangelist, Privacy Champion, Wardley Mapper. #Settler, #GdsTeam #GCloud #MoJ #CLAS #Veteran","bio":"","is_active":true}],"categories":[{"id":156639,"event":5573,"title":"Wardley Maps","description":"Sessions focusing on the use of Wardley Maps in Security"}],"is_active":true,"is_featured":false},{"id":87241,"title":"Wardley Maps PST and Doctrine","date":"2020-06-16T16:00:00","event":"https://api.heysummit.com/api/v2/events/5573/","speakers":[{"id":81711,"event":5573,"first_name":"Simon","last_name":"Wardley","company":null,"company_title":null,"headshot":"https://s3.amazonaws.com/heysummit-production/media/uploads/events/open-security-summit-2020/hRofkrwURS8NvG2GxZ6wLD.jpg","expert_creds":"I like ducks, they're fowl but not through choice.  Created #Wardleymaps ... not the hashtag but the field. Chaotic Evil, Thought Lord. RT ≠ +1","bio":"Explorer of uncharted spaces. Twice voted in the UKTech50, Judge in Nesta's Open Banking and Netflix's Open Source competitions, Co-Chair of OSCON Europe, Cloud Camp and Map Camp. Regular speaker on the global tech circuit.","is_active":true}],"categories":[{"id":156639,"event":5573,"title":"Wardley Maps","description":"Sessions focusing on the use of Wardley Maps in Security"}],"is_active":false,"is_featured":false},{"id":95904,"title":"Events example and security implications of the isolation and terrorism (3pm BST) 2 Chilli","date":"2020-06-16T14:45:00","event":"https://api.heysummit.com/api/v2/events/5573/","speakers":[{"id":81711,"event":5573,"first_name":"Simon","last_name":"Wardley","company":null,"company_title":null,"headshot":"https://s3.amazonaws.com/heysummit-production/media/uploads/events/open-security-summit-2020/hRofkrwURS8NvG2GxZ6wLD.jpg","expert_creds":"I like ducks, they're fowl but not through choice.  Created #Wardleymaps ... not the hashtag but the field. Chaotic Evil, Thought Lord. RT ≠ +1","bio":"Explorer of uncharted spaces. Twice voted in the UKTech50, Judge in Nesta's Open Banking and Netflix's Open Source competitions, Co-Chair of OSCON Europe, Cloud Camp and Map Camp. Regular speaker on the global tech circuit.","is_active":true}],"categories":[{"id":156639,"event":5573,"title":"Wardley Maps","description":"Sessions focusing on the use of Wardley Maps in Security"}],"is_active":true,"is_featured":false},{"id":95902,"title":"Mapping culture (2pm BST) 2 Chilli","date":"2020-06-16T13:45:00","event":"https://api.heysummit.com/api/v2/events/5573/","speakers":[{"id":81711,"event":5573,"first_name":"Simon","last_name":"Wardley","company":null,"company_title":null,"headshot":"https://s3.amazonaws.com/heysummit-production/media/uploads/events/open-security-summit-2020/hRofkrwURS8NvG2GxZ6wLD.jpg","expert_creds":"I like ducks, they're fowl but not through choice.  Created #Wardleymaps ... not the hashtag but the field. Chaotic Evil, Thought Lord. RT ≠ +1","bio":"Explorer of uncharted spaces. Twice voted in the UKTech50, Judge in Nesta's Open Banking and Netflix's Open Source competitions, Co-Chair of OSCON Europe, Cloud Camp and Map Camp. Regular speaker on the global tech circuit.","is_active":true}],"categories":[{"id":156639,"event":5573,"title":"Wardley Maps","description":"Sessions focusing on the use of Wardley Maps in Security"}],"is_active":true,"is_featured":false},{"id":95671,"title":"Lightning Talk - The Future of CNI (1.40pm BST)","date":"2020-06-16T13:40:00","event":"https://api.heysummit.com/api/v2/events/5573/","speakers":[{"id":90365,"event":5573,"first_name":"Jacqui","last_name":"Taylor","company":"Flying Binary","company_title":"CEO","headshot":"https://s3.amazonaws.com/heysummit-production/media/uploads/events/open-security-summit-2020/3AiAWsEby72ZuWAKmbPWTV.png","expert_creds":"Helping Digitally Savvy entrepreneurs become CyberSafe and unlock new opportunities with a proven success plan| Cyberpreneur | AI | IoT | Smart Cities Tsar | Science Diplomat |Brexit","bio":"One of the 100 most powerful UK entrepreneurs, awarded an Honorary Doctorate of Science in recognition of her international web science work. One of the 250 Founders of Tech City in  December 2016 she pivoted her company FlyingBinary to meet the challenge of Brexit and the Internet of Things (IoT) with spectacular results. \r\n\r\nShe is recognised as one of the 100 Global Leaders in 2019, Top Ten Global IoT innovators, and is an independent industry analyst for IoT. One of 4 IoT leaders advising the European Commission on their Citizen strategy for smart cities. One of the UK’s most influential Women in Tech, most influential web science researcher in 2019, 34 IoT Influencers on Twitter, 20 global entrepreneurs to watch, a UK Smart City leader. Shortlisted for a Cyber Security industry award based she was invited to speak in Davos on the future of the Cyber Security Industry.\r\n \r\nGlobally recognised as a Smart City Tzar, and a strategic Advisor to the UK Government, Cities lead on Digital Built, Principal UK Expert lead for BSI international team for Smart Cities and AI.  As a UK Science Diplomat she is working across the world to connect nations with her IoT innovations.","is_active":true}],"categories":[{"id":171378,"event":5573,"title":"Miscellaneous","description":""}],"is_active":true,"is_featured":false},{"id":106124,"title":"Lightning Demo - Threatmodel tool demos  (1pm BST)","date":"2020-06-16T12:45:00","event":"https://api.heysummit.com/api/v2/events/5573/","speakers":[{"id":90419,"event":5573,"first_name":"Steven","last_name":"Wierckx","company":null,"company_title":null,"headshot":"https://s3.amazonaws.com/heysummit-production/media/defaults/user_default_image.png","expert_creds":"","bio":"","is_active":true},{"id":99719,"event":5573,"first_name":"Mike","last_name":"Goodwin","company":null,"company_title":null,"headshot":"https://s3.amazonaws.com/heysummit-production/media/defaults/user_default_image.png","expert_creds":null,"bio":null,"is_active":true}],"categories":[{"id":156637,"event":5573,"title":"Threat Modeling","description":"Sessions focusing on Threat Modeling\r\nFor beginner level intro to the topic, join the pre-summit training event https://pre-summit-training-sessions.heysummit.com/\r\nIf you missed it, checkout video replays on our youtube channel https://www.youtube.com/channel/UCyse9b_2JLJUxKMLgSpOL-Q/"}],"is_active":true,"is_featured":false},{"id":97085,"title":"Threat model academic research status (11am BST)","date":"2020-06-16T10:45:00","event":"https://api.heysummit.com/api/v2/events/5573/","speakers":[{"id":90419,"event":5573,"first_name":"Steven","last_name":"Wierckx","company":null,"company_title":null,"headshot":"https://s3.amazonaws.com/heysummit-production/media/defaults/user_default_image.png","expert_creds":"","bio":"","is_active":true},{"id":100142,"event":5573,"first_name":"Kim","last_name":"Wuyts","company":"imec-DistriNet, KU Leuven","company_title":null,"headshot":"https://s3.amazonaws.com/heysummit-production/media/uploads/events/open-security-summit-2020/bGjdnXMPhttQutmYimKFTm.jpg","expert_creds":"","bio":"Kim Wuyts is a postdoctoral researcher at the Department of Computer Science at KU Leuven (Belgium). She has more than 10 years of experience in security and privacy in software engineering. Kim is one of the main forces behind the development and extension of LINDDUN, a privacy-by-design framework that provides systematic support to elicit and mitigate privacy threats in software systems.","is_active":true},{"id":100143,"event":5573,"first_name":"Koen","last_name":"Yskout","company":"KU Leuven","company_title":"Research Manager Secure Software Engineering","headshot":"https://s3.amazonaws.com/heysummit-production/media/uploads/events/open-security-summit-2020/xfZggRsxy982cntuxZ2yUE.jpg","expert_creds":"","bio":"","is_active":true}],"categories":[{"id":156637,"event":5573,"title":"Threat Modeling","description":"Sessions focusing on Threat Modeling\r\nFor beginner level intro to the topic, join the pre-summit training event https://pre-summit-training-sessions.heysummit.com/\r\nIf you missed it, checkout video replays on our youtube channel https://www.youtube.com/channel/UCyse9b_2JLJUxKMLgSpOL-Q/"}],"is_active":true,"is_featured":false}]}