{"count":94,"next":"https://api.heysummit.com/api/talks/?event=5573&page=4","previous":"https://api.heysummit.com/api/talks/?event=5573&page=2","results":[{"id":102319,"title":"Show & Tell - How I do it (5pm BST)","date":"2020-06-18T16:45:00","event":"https://api.heysummit.com/api/v2/events/5573/","speakers":[{"id":90460,"event":5573,"first_name":"Tony","last_name":"Richards","company":"EY","company_title":"Technical Director","headshot":"https://s3.amazonaws.com/heysummit-production/media/uploads/events/open-security-summit-2020/ftS2ErEq2mtPH6xETjuidH.png","expert_creds":"Security Strategist, vCISO, Cloud Security Evangelist, Privacy Champion, Wardley Mapper. #Settler, #GdsTeam #GCloud #MoJ #CLAS #Veteran","bio":"","is_active":true},{"id":90467,"event":5573,"first_name":"Omer Levi","last_name":"Hevroni","company":null,"company_title":null,"headshot":"https://s3.amazonaws.com/heysummit-production/media/defaults/user_default_image.png","expert_creds":null,"bio":null,"is_active":true}],"categories":[{"id":156633,"event":5573,"title":"Cloud Security","description":"Sessions focusing on cloud security and automation"}],"is_active":true,"is_featured":false},{"id":101937,"title":"CDR Roundtable How to collaborate and increase adoption (2pm BST)","date":"2020-06-18T13:45:00","event":"https://api.heysummit.com/api/v2/events/5573/","speakers":[{"id":76446,"event":5573,"first_name":"Dinis","last_name":"Cruz","company":"Open Security Summit CIC","company_title":null,"headshot":"https://s3.amazonaws.com/heysummit-production/media/uploads/events/open-security-summit-2020/2TpHAUjVvDQFcpBwmuHqSj.png","expert_creds":"CISO and SVP Engineering at Glasswall, Transformation agent, project leader of OWASP SBot and O2 Platform projects","bio":"Dinis Cruz is the CISO and SVP of engineering of the UK startup Glasswall. Dinis is a Transformation Agent, focused on creating teams and environments where security is an enabler and accelerator for the business, while securing and protecting the digital assets from existing threats. Dinis was nominated for CISO of the Year 2019 at #CyberSecurityAwards\r\n\r\nDinis is also writing a book called Generation Z Developers (but useful for all Generations) available from Amazon:","is_active":true}],"categories":[{"id":187368,"event":5573,"title":"Security Standards","description":""}],"is_active":true,"is_featured":false},{"id":102306,"title":"Multi-cloud Compliance as code (2pm BST)","date":"2020-06-18T13:45:00","event":"https://api.heysummit.com/api/v2/events/5573/","speakers":[{"id":90464,"event":5573,"first_name":"David","last_name":"Prince","company":null,"company_title":null,"headshot":"https://s3.amazonaws.com/heysummit-production/media/uploads/events/open-security-summit-2020/fEfnDfufV6sbg2vda4dsSK.jpeg","expert_creds":"Director at Baringa Partners.   Cyber security specialist. Thoughts are my own, or at least I think they are?","bio":"I am a deeply passionate senior executive and industry speaker with considerable experience and demonstrated success in designing and delivering cyber and information security strategies for a variety of businesses and private clients. During my career I have helped my clients proactively manage their cyber and information security risk, as well as improve response capabilities to emerging and live data loss incidents and crises. I have gained significant experience in my career as an in-house cyber and information security leader as well as a trusted advisor and consultant, helping clients minimize business disruption and financial harm that often ensues data loss, whilst protecting reputation. \r\n\r\nSpecialities: Information Security Risk Management; Business Impact Analysis; Regulatory Compliance; Cloud Computing; Information Systems Auditing; Secure Architecture Design and Assessment; Policy Framework Design & Development; Application Security Best Practices; Education, Training, and Awareness Program Development, Management, & Delivery; Secure Business Solutions;  Encryption Key Management & PKI; Business Continuity & Disaster Recovery Planning; Data Loss Prevention","is_active":true}],"categories":[{"id":156633,"event":5573,"title":"Cloud Security","description":"Sessions focusing on cloud security and automation"}],"is_active":true,"is_featured":false},{"id":102307,"title":"Multi-cloud governance (2pm BST)","date":"2020-06-18T13:45:00","event":"https://api.heysummit.com/api/v2/events/5573/","speakers":[{"id":90439,"event":5573,"first_name":"Ben","last_name":"Schofield","company":null,"company_title":null,"headshot":"https://s3.amazonaws.com/heysummit-production/media/defaults/user_default_image.png","expert_creds":null,"bio":null,"is_active":true}],"categories":[{"id":156633,"event":5573,"title":"Cloud Security","description":"Sessions focusing on cloud security and automation"}],"is_active":true,"is_featured":false},{"id":102282,"title":"Open Information Security Risk Universe (OISRU) (2pm BST)","date":"2020-06-18T13:45:00","event":"https://api.heysummit.com/api/v2/events/5573/","speakers":[{"id":90458,"event":5573,"first_name":"Phil","last_name":"Huggins","company":"CISO Mentor","company_title":"Director","headshot":"https://s3.amazonaws.com/heysummit-production/media/uploads/events/open-security-summit-2020/LgdnFdYhR6GsEkh6QtGtZR.jpeg","expert_creds":"Resilience, Security Leadership and Risk Science. \r\n\r\nUncon, OWASP, CISO Mentor, Zava. \r\nOpen Information Security Risk Universe: https://oisru.org","bio":"I am a proven security leader providing advice as an independent consultant with over 20 years of experience. I am a delivery-focused, chartered, security and risk professional with extensive experience of governance, management, system engineering and practical architecture across a wide range of disciplines and technologies. I am experienced in briefing and presenting cybersecurity risk concepts to boards and training NEDs.\r\n\r\nI have designed and operated security for critical national infrastructure and sensitive government. I have advised and managed global financial services organisations and advised national regulators on cyber resilience and cybersecurity. I was a member of the Cross Market Operational Resilience Group's Cyber Coordination Group and have also been a private sector representative on multiple occasions to the Financial Stability Board on cybersecurity regulations. I am currently a member of the UK Cyber Policy Working Group advising the Department of Culture, Media and Sport.","is_active":true},{"id":92767,"event":5573,"first_name":"Robin","last_name":"Oldham","company":"Cydea","company_title":"Director","headshot":"https://s3.amazonaws.com/heysummit-production/media/uploads/events/open-security-summit-2020/CHtxHD5rpCYoNPM2fN6FaU.jpg","expert_creds":"","bio":"","is_active":true}],"categories":[{"id":156632,"event":5573,"title":"CISO and Risk Management","description":"Sessions focusing on CISO areas of concern and making security scale"}],"is_active":true,"is_featured":false},{"id":102304,"title":"Migration to Cloud (11am BST)","date":"2020-06-18T10:45:00","event":"https://api.heysummit.com/api/v2/events/5573/","speakers":[{"id":90464,"event":5573,"first_name":"David","last_name":"Prince","company":null,"company_title":null,"headshot":"https://s3.amazonaws.com/heysummit-production/media/uploads/events/open-security-summit-2020/fEfnDfufV6sbg2vda4dsSK.jpeg","expert_creds":"Director at Baringa Partners.   Cyber security specialist. Thoughts are my own, or at least I think they are?","bio":"I am a deeply passionate senior executive and industry speaker with considerable experience and demonstrated success in designing and delivering cyber and information security strategies for a variety of businesses and private clients. During my career I have helped my clients proactively manage their cyber and information security risk, as well as improve response capabilities to emerging and live data loss incidents and crises. I have gained significant experience in my career as an in-house cyber and information security leader as well as a trusted advisor and consultant, helping clients minimize business disruption and financial harm that often ensues data loss, whilst protecting reputation. \r\n\r\nSpecialities: Information Security Risk Management; Business Impact Analysis; Regulatory Compliance; Cloud Computing; Information Systems Auditing; Secure Architecture Design and Assessment; Policy Framework Design & Development; Application Security Best Practices; Education, Training, and Awareness Program Development, Management, & Delivery; Secure Business Solutions;  Encryption Key Management & PKI; Business Continuity & Disaster Recovery Planning; Data Loss Prevention","is_active":true}],"categories":[{"id":156633,"event":5573,"title":"Cloud Security","description":"Sessions focusing on cloud security and automation"}],"is_active":true,"is_featured":false},{"id":101810,"title":"NCSC - Exercise In a Box ( 11am BST)","date":"2020-06-18T10:45:00","event":"https://api.heysummit.com/api/v2/events/5573/","speakers":[{"id":96094,"event":5573,"first_name":"Steve","last_name":"O","company":"National Cyber Security Centre","company_title":"Head of Cyber Exercising","headshot":"https://s3.amazonaws.com/heysummit-production/media/defaults/user_default_image.png","expert_creds":"","bio":"","is_active":true},{"id":99502,"event":5573,"first_name":"Peter","last_name":"G","company":"NCSC","company_title":null,"headshot":"https://s3.amazonaws.com/heysummit-production/media/defaults/user_default_image.png","expert_creds":"","bio":"","is_active":true},{"id":99503,"event":5573,"first_name":"Joshua","last_name":"H","company":"NCSC","company_title":null,"headshot":"https://s3.amazonaws.com/heysummit-production/media/defaults/user_default_image.png","expert_creds":null,"bio":null,"is_active":true}],"categories":[{"id":156632,"event":5573,"title":"CISO and Risk Management","description":"Sessions focusing on CISO areas of concern and making security scale"}],"is_active":true,"is_featured":true},{"id":102301,"title":"Cloud Native mixed with on-prem - Hybrid uses (11am BST)","date":"2020-06-18T10:45:00","event":"https://api.heysummit.com/api/v2/events/5573/","speakers":[{"id":76446,"event":5573,"first_name":"Dinis","last_name":"Cruz","company":"Open Security Summit CIC","company_title":null,"headshot":"https://s3.amazonaws.com/heysummit-production/media/uploads/events/open-security-summit-2020/2TpHAUjVvDQFcpBwmuHqSj.png","expert_creds":"CISO and SVP Engineering at Glasswall, Transformation agent, project leader of OWASP SBot and O2 Platform projects","bio":"Dinis Cruz is the CISO and SVP of engineering of the UK startup Glasswall. Dinis is a Transformation Agent, focused on creating teams and environments where security is an enabler and accelerator for the business, while securing and protecting the digital assets from existing threats. Dinis was nominated for CISO of the Year 2019 at #CyberSecurityAwards\r\n\r\nDinis is also writing a book called Generation Z Developers (but useful for all Generations) available from Amazon:","is_active":true}],"categories":[{"id":156633,"event":5573,"title":"Cloud Security","description":"Sessions focusing on cloud security and automation"}],"is_active":false,"is_featured":false},{"id":107115,"title":"Security Labels for Covid Apps (11am BST)","date":"2020-06-18T10:45:00","event":"https://api.heysummit.com/api/v2/events/5573/","speakers":[{"id":76446,"event":5573,"first_name":"Dinis","last_name":"Cruz","company":"Open Security Summit CIC","company_title":null,"headshot":"https://s3.amazonaws.com/heysummit-production/media/uploads/events/open-security-summit-2020/2TpHAUjVvDQFcpBwmuHqSj.png","expert_creds":"CISO and SVP Engineering at Glasswall, Transformation agent, project leader of OWASP SBot and O2 Platform projects","bio":"Dinis Cruz is the CISO and SVP of engineering of the UK startup Glasswall. Dinis is a Transformation Agent, focused on creating teams and environments where security is an enabler and accelerator for the business, while securing and protecting the digital assets from existing threats. Dinis was nominated for CISO of the Year 2019 at #CyberSecurityAwards\r\n\r\nDinis is also writing a book called Generation Z Developers (but useful for all Generations) available from Amazon:","is_active":true},{"id":101097,"event":5573,"first_name":"Adam Leon","last_name":"Smith","company":null,"company_title":null,"headshot":"https://s3.amazonaws.com/heysummit-production/media/defaults/user_default_image.png","expert_creds":null,"bio":null,"is_active":true}],"categories":[{"id":193845,"event":5573,"title":"Covid","description":""}],"is_active":true,"is_featured":false},{"id":106123,"title":"Threatmodel tool demos - Thursday (11am BST)","date":"2020-06-18T10:45:00","event":"https://api.heysummit.com/api/v2/events/5573/","speakers":[{"id":90419,"event":5573,"first_name":"Steven","last_name":"Wierckx","company":null,"company_title":null,"headshot":"https://s3.amazonaws.com/heysummit-production/media/defaults/user_default_image.png","expert_creds":"","bio":"","is_active":true},{"id":99724,"event":5573,"first_name":"Stephen","last_name":"De Vries","company":"IriusRisk SL","company_title":"CEO","headshot":"https://s3.amazonaws.com/heysummit-production/media/defaults/user_default_image.png","expert_creds":"","bio":"","is_active":true}],"categories":[{"id":156637,"event":5573,"title":"Threat Modeling","description":"Sessions focusing on Threat Modeling\r\nFor beginner level intro to the topic, join the pre-summit training event https://pre-summit-training-sessions.heysummit.com/\r\nIf you missed it, checkout video replays on our youtube channel https://www.youtube.com/channel/UCyse9b_2JLJUxKMLgSpOL-Q/"}],"is_active":true,"is_featured":false}]}