{"count":94,"next":"https://api.heysummit.com/api/talks/?event=5573&page=3","previous":"https://api.heysummit.com/api/talks/?event=5573","results":[{"id":101179,"title":"Lightning Talk - DevSecOps (1:40pm BST)","date":"2020-06-19T13:40:00","event":"https://api.heysummit.com/api/v2/events/5573/","speakers":[{"id":95542,"event":5573,"first_name":"Imran A.","last_name":"Mohammed","company":null,"company_title":null,"headshot":"https://s3.amazonaws.com/heysummit-production/media/defaults/user_default_image.png","expert_creds":null,"bio":null,"is_active":true}],"categories":[{"id":156635,"event":5573,"title":"DevSecOps","description":"Sessions focusing on the DevSecOps tools and techniques to embed security as part of CI/CD pipelines"}],"is_active":true,"is_featured":false},{"id":104440,"title":"Secure it at the source, frameworks and how to get them more secure (11am BST)","date":"2020-06-19T10:45:00","event":"https://api.heysummit.com/api/v2/events/5573/","speakers":[{"id":96790,"event":5573,"first_name":"Andrew","last_name":"van der Stock","company":"OWASP","company_title":null,"headshot":"https://s3.amazonaws.com/heysummit-production/media/uploads/events/open-security-summit-2020/FtMLa9VkZBVSgq9ukVoYPE.jpeg","expert_creds":"","bio":"","is_active":true}],"categories":[{"id":171378,"event":5573,"title":"Miscellaneous","description":""}],"is_active":true,"is_featured":false},{"id":106535,"title":"OSS user stories for all ASVS requirements that people can download and us (11am BST)","date":"2020-06-19T10:45:00","event":"https://api.heysummit.com/api/v2/events/5573/","speakers":[{"id":90419,"event":5573,"first_name":"Steven","last_name":"Wierckx","company":null,"company_title":null,"headshot":"https://s3.amazonaws.com/heysummit-production/media/defaults/user_default_image.png","expert_creds":"","bio":"","is_active":true},{"id":80996,"event":5573,"first_name":"Mario","last_name":"Platt","company":"Practical DevSecOps","company_title":"Strategy Director","headshot":"https://s3.amazonaws.com/heysummit-production/media/uploads/events/open-security-summit-2020/vYfniNyb6D4W8rSvmZ9jDU.jpg","expert_creds":"easonable Assurance against Predictable threats. Infosec / Cyber / Risk Mgt. At the edges of these with Biz, Complexity, Wardley Mapping and SPT","bio":"An accomplished, highly respected and innovative Information Security Expert, with a multi-faceted track record of expertise ranging from penetration testing, operations, product management, design authority, risk management and governance; with success of attaining and maintaining compliance to security frameworks, across Telecommunications, Retail,  Healthcare and Public Sector organisations throughout the last 15+ years.","is_active":true}],"categories":[{"id":171377,"event":5573,"title":"OWASP ASVS","description":"Sessions focusing on Application Security Verification Standard (ASVS)\r\nhttps://owasp.org/www-project-application-security-verification-standard/"}],"is_active":true,"is_featured":false},{"id":106923,"title":"Keynote - Privacy by Design at Covid Safe Paths  (10:30am BST)","date":"2020-06-19T10:30:00","event":"https://api.heysummit.com/api/v2/events/5573/","speakers":[{"id":101097,"event":5573,"first_name":"Adam Leon","last_name":"Smith","company":null,"company_title":null,"headshot":"https://s3.amazonaws.com/heysummit-production/media/defaults/user_default_image.png","expert_creds":null,"bio":null,"is_active":true}],"categories":[{"id":193845,"event":5573,"title":"Covid","description":""}],"is_active":true,"is_featured":false},{"id":81625,"title":"Security awareness business case","date":"2020-06-18T20:27:00","event":"https://api.heysummit.com/api/v2/events/5573/","speakers":[{"id":76528,"event":5573,"first_name":"Jemma","last_name":"Davis","company":null,"company_title":"Security Culture and Awareness Consultant","headshot":"https://s3.amazonaws.com/heysummit-production/media/uploads/events/open-security-summit-2020/vCtsu2iVKKgmXQLRvo9Ph2.jpeg","expert_creds":"Security Culture and Awareness Consultant, Special Investigations, EQ trainer, Marketing Consultant","bio":"","is_active":true}],"categories":[{"id":156635,"event":5573,"title":"DevSecOps","description":"Sessions focusing on the DevSecOps tools and techniques to embed security as part of CI/CD pipelines"}],"is_active":false,"is_featured":false},{"id":101936,"title":"Bakeoff - Anti-virus vs CDR vs Sandboxing","date":"2020-06-18T19:45:00","event":"https://api.heysummit.com/api/v2/events/5573/","speakers":[{"id":96274,"event":5573,"first_name":"Paul","last_name":"Burke","company":"Glasswall Solutions","company_title":null,"headshot":"https://s3.amazonaws.com/heysummit-production/media/uploads/events/open-security-summit-2020/4XfNYoTrwVehaTuGvGNzt7.png","expert_creds":"","bio":"","is_active":true}],"categories":[{"id":194181,"event":5573,"title":"CDR","description":""}],"is_active":true,"is_featured":false},{"id":102261,"title":"Risk & Error Budgeting (8pm BST)","date":"2020-06-18T19:45:00","event":"https://api.heysummit.com/api/v2/events/5573/","speakers":[{"id":76446,"event":5573,"first_name":"Dinis","last_name":"Cruz","company":"Open Security Summit CIC","company_title":null,"headshot":"https://s3.amazonaws.com/heysummit-production/media/uploads/events/open-security-summit-2020/2TpHAUjVvDQFcpBwmuHqSj.png","expert_creds":"CISO and SVP Engineering at Glasswall, Transformation agent, project leader of OWASP SBot and O2 Platform projects","bio":"Dinis Cruz is the CISO and SVP of engineering of the UK startup Glasswall. Dinis is a Transformation Agent, focused on creating teams and environments where security is an enabler and accelerator for the business, while securing and protecting the digital assets from existing threats. Dinis was nominated for CISO of the Year 2019 at #CyberSecurityAwards\r\n\r\nDinis is also writing a book called Generation Z Developers (but useful for all Generations) available from Amazon:","is_active":true},{"id":90458,"event":5573,"first_name":"Phil","last_name":"Huggins","company":"CISO Mentor","company_title":"Director","headshot":"https://s3.amazonaws.com/heysummit-production/media/uploads/events/open-security-summit-2020/LgdnFdYhR6GsEkh6QtGtZR.jpeg","expert_creds":"Resilience, Security Leadership and Risk Science. \r\n\r\nUncon, OWASP, CISO Mentor, Zava. \r\nOpen Information Security Risk Universe: https://oisru.org","bio":"I am a proven security leader providing advice as an independent consultant with over 20 years of experience. I am a delivery-focused, chartered, security and risk professional with extensive experience of governance, management, system engineering and practical architecture across a wide range of disciplines and technologies. I am experienced in briefing and presenting cybersecurity risk concepts to boards and training NEDs.\r\n\r\nI have designed and operated security for critical national infrastructure and sensitive government. I have advised and managed global financial services organisations and advised national regulators on cyber resilience and cybersecurity. I was a member of the Cross Market Operational Resilience Group's Cyber Coordination Group and have also been a private sector representative on multiple occasions to the Financial Stability Board on cybersecurity regulations. I am currently a member of the UK Cyber Policy Working Group advising the Department of Culture, Media and Sport.","is_active":true},{"id":90460,"event":5573,"first_name":"Tony","last_name":"Richards","company":"EY","company_title":"Technical Director","headshot":"https://s3.amazonaws.com/heysummit-production/media/uploads/events/open-security-summit-2020/ftS2ErEq2mtPH6xETjuidH.png","expert_creds":"Security Strategist, vCISO, Cloud Security Evangelist, Privacy Champion, Wardley Mapper. #Settler, #GdsTeam #GCloud #MoJ #CLAS #Veteran","bio":"","is_active":true},{"id":90467,"event":5573,"first_name":"Omer Levi","last_name":"Hevroni","company":null,"company_title":null,"headshot":"https://s3.amazonaws.com/heysummit-production/media/defaults/user_default_image.png","expert_creds":null,"bio":null,"is_active":true}],"categories":[{"id":156632,"event":5573,"title":"CISO and Risk Management","description":"Sessions focusing on CISO areas of concern and making security scale"}],"is_active":true,"is_featured":false},{"id":98221,"title":"COVID Apps Threat Modeling (User Session) (8pm BST)","date":"2020-06-18T19:45:00","event":"https://api.heysummit.com/api/v2/events/5573/","speakers":[{"id":92914,"event":5573,"first_name":"Jakub","last_name":"Kaluzny","company":"SecuRing","company_title":"Sr IT Security Consultant","headshot":"https://s3.amazonaws.com/heysummit-production/media/uploads/events/open-security-summit-2020/wsDTsAzgKwwUuHyznHE2eh.jpg","expert_creds":"Helping companies to bring the \"oh, we didn't expect it\" phrase earlier in the SDLC. I believe the software is as secure as detailed is its threat model.","bio":"Jakub is a security consultant specialising in the areas of DevSecOps, threat modelling and penetration testing of applications, networks and systems in high-risk environments. Having worked in Spain, Poland and Australia, Jakub consulted security for global clients in multiple industries - financial, law, airline and entertainment.","is_active":true}],"categories":[{"id":156637,"event":5573,"title":"Threat Modeling","description":"Sessions focusing on Threat Modeling\r\nFor beginner level intro to the topic, join the pre-summit training event https://pre-summit-training-sessions.heysummit.com/\r\nIf you missed it, checkout video replays on our youtube channel https://www.youtube.com/channel/UCyse9b_2JLJUxKMLgSpOL-Q/"}],"is_active":true,"is_featured":false},{"id":95863,"title":"Lightning Talk - Startups: Security vs speed vs revenue, when all 3 are a priority! (7:40pm BST)","date":"2020-06-18T19:40:00","event":"https://api.heysummit.com/api/v2/events/5573/","speakers":[{"id":90581,"event":5573,"first_name":"Haydn","last_name":"Brooks","company":"Risk Ledger","company_title":"CEO","headshot":"https://s3.amazonaws.com/heysummit-production/media/uploads/events/open-security-summit-2020/rbAPCPE7rz9EEqkB83Cttf.jpg","expert_creds":"Big 4 supply chain risk expert turned tech founder, building a platform to make supply chain security more than just a paper shield.","bio":"Haydn is the CEO of Risk Ledger, a growing supply chain business that has won awards with the NCSC for their approach to vendor risk management. Before this, Haydn spent three years working for KPMG and Deloitte where, as a graduate, he became Deloitte’s supply chain security SME (subject matter expert). He has helped organisations define, implement, and run programmes to better secure their supply chain. Haydn has spoken at industry events on supply chain security and cyber security more broadly.","is_active":true}],"categories":[{"id":156632,"event":5573,"title":"CISO and Risk Management","description":"Sessions focusing on CISO areas of concern and making security scale"}],"is_active":true,"is_featured":false},{"id":102319,"title":"Show & Tell - How I do it (5pm BST)","date":"2020-06-18T16:45:00","event":"https://api.heysummit.com/api/v2/events/5573/","speakers":[{"id":90460,"event":5573,"first_name":"Tony","last_name":"Richards","company":"EY","company_title":"Technical Director","headshot":"https://s3.amazonaws.com/heysummit-production/media/uploads/events/open-security-summit-2020/ftS2ErEq2mtPH6xETjuidH.png","expert_creds":"Security Strategist, vCISO, Cloud Security Evangelist, Privacy Champion, Wardley Mapper. #Settler, #GdsTeam #GCloud #MoJ #CLAS #Veteran","bio":"","is_active":true},{"id":90467,"event":5573,"first_name":"Omer Levi","last_name":"Hevroni","company":null,"company_title":null,"headshot":"https://s3.amazonaws.com/heysummit-production/media/defaults/user_default_image.png","expert_creds":null,"bio":null,"is_active":true}],"categories":[{"id":156633,"event":5573,"title":"Cloud Security","description":"Sessions focusing on cloud security and automation"}],"is_active":true,"is_featured":false}]}