{"count":94,"next":"https://api.heysummit.com/api/talks/?event=5573&page=10","previous":"https://api.heysummit.com/api/talks/?event=5573&page=8","results":[{"id":106381,"title":"Opening Keynote (10.30am BST)","date":"2020-06-15T10:30:00","event":"https://api.heysummit.com/api/v2/events/5573/","speakers":[{"id":76446,"event":5573,"first_name":"Dinis","last_name":"Cruz","company":"Open Security Summit CIC","company_title":null,"headshot":"https://s3.amazonaws.com/heysummit-production/media/uploads/events/open-security-summit-2020/2TpHAUjVvDQFcpBwmuHqSj.png","expert_creds":"CISO and SVP Engineering at Glasswall, Transformation agent, project leader of OWASP SBot and O2 Platform projects","bio":"Dinis Cruz is the CISO and SVP of engineering of the UK startup Glasswall. Dinis is a Transformation Agent, focused on creating teams and environments where security is an enabler and accelerator for the business, while securing and protecting the digital assets from existing threats. Dinis was nominated for CISO of the Year 2019 at #CyberSecurityAwards\r\n\r\nDinis is also writing a book called Generation Z Developers (but useful for all Generations) available from Amazon:","is_active":true},{"id":90402,"event":5573,"first_name":"Open Security","last_name":"Summit 2020","company":null,"company_title":null,"headshot":"https://s3.amazonaws.com/heysummit-production/media/uploads/events/open-security-summit-2020/wp2zBUqGAybMyFYDZRkhQR.png","expert_creds":null,"bio":null,"is_active":true}],"categories":[{"id":171378,"event":5573,"title":"Miscellaneous","description":""}],"is_active":true,"is_featured":false},{"id":81396,"title":"Jira and Jupyter notebooks introduction","date":"2020-06-15T10:00:00","event":"https://api.heysummit.com/api/v2/events/5573/","speakers":[{"id":76446,"event":5573,"first_name":"Dinis","last_name":"Cruz","company":"Open Security Summit CIC","company_title":null,"headshot":"https://s3.amazonaws.com/heysummit-production/media/uploads/events/open-security-summit-2020/2TpHAUjVvDQFcpBwmuHqSj.png","expert_creds":"CISO and SVP Engineering at Glasswall, Transformation agent, project leader of OWASP SBot and O2 Platform projects","bio":"Dinis Cruz is the CISO and SVP of engineering of the UK startup Glasswall. Dinis is a Transformation Agent, focused on creating teams and environments where security is an enabler and accelerator for the business, while securing and protecting the digital assets from existing threats. Dinis was nominated for CISO of the Year 2019 at #CyberSecurityAwards\r\n\r\nDinis is also writing a book called Generation Z Developers (but useful for all Generations) available from Amazon:","is_active":true}],"categories":[],"is_active":false,"is_featured":false},{"id":81624,"title":"Wardley Maps introduction","date":"2020-06-15T10:00:00","event":"https://api.heysummit.com/api/v2/events/5573/","speakers":[{"id":76446,"event":5573,"first_name":"Dinis","last_name":"Cruz","company":"Open Security Summit CIC","company_title":null,"headshot":"https://s3.amazonaws.com/heysummit-production/media/uploads/events/open-security-summit-2020/2TpHAUjVvDQFcpBwmuHqSj.png","expert_creds":"CISO and SVP Engineering at Glasswall, Transformation agent, project leader of OWASP SBot and O2 Platform projects","bio":"Dinis Cruz is the CISO and SVP of engineering of the UK startup Glasswall. Dinis is a Transformation Agent, focused on creating teams and environments where security is an enabler and accelerator for the business, while securing and protecting the digital assets from existing threats. Dinis was nominated for CISO of the Year 2019 at #CyberSecurityAwards\r\n\r\nDinis is also writing a book called Generation Z Developers (but useful for all Generations) available from Amazon:","is_active":true},{"id":76717,"event":5573,"first_name":"Didar","last_name":"Gelici","company":null,"company_title":null,"headshot":"https://s3.amazonaws.com/heysummit-production/media/uploads/events/open-security-summit-2020/poJjQ9rHDxmPujRAeLKzJE.jpeg","expert_creds":"I am a cyber risk manager transitioning into appsec/devsecops. \r\nI am CISSP and CIPP/US but believe the developer led future is already here and want to be here for them to integrate security in their practices rather than gatekeeping and dictating how they should do their job.","bio":"I am deeply involved with three security non-profits, if you would like to collaborate with any of them come talk to me:\r\n Ladies of London Hacking Society - http://llhs.com\r\n SHeCISOExec - https://www.shecisoexec.org/\r\n Open Security Summit - https://open-security-summit.org/","is_active":true}],"categories":[{"id":156639,"event":5573,"title":"Wardley Maps","description":"Sessions focusing on the use of Wardley Maps in Security"}],"is_active":false,"is_featured":false},{"id":102043,"title":"JPG ISG - How to automate Inspection and Sanitization Guidance testing ( 2pm BST)","date":"2020-06-12T01:45:00","event":"https://api.heysummit.com/api/v2/events/5573/","speakers":[{"id":76446,"event":5573,"first_name":"Dinis","last_name":"Cruz","company":"Open Security Summit CIC","company_title":null,"headshot":"https://s3.amazonaws.com/heysummit-production/media/uploads/events/open-security-summit-2020/2TpHAUjVvDQFcpBwmuHqSj.png","expert_creds":"CISO and SVP Engineering at Glasswall, Transformation agent, project leader of OWASP SBot and O2 Platform projects","bio":"Dinis Cruz is the CISO and SVP of engineering of the UK startup Glasswall. Dinis is a Transformation Agent, focused on creating teams and environments where security is an enabler and accelerator for the business, while securing and protecting the digital assets from existing threats. Dinis was nominated for CISO of the Year 2019 at #CyberSecurityAwards\r\n\r\nDinis is also writing a book called Generation Z Developers (but useful for all Generations) available from Amazon:","is_active":true},{"id":96191,"event":5573,"first_name":"Luke","last_name":"Robbertse","company":"Glasswall Solutions","company_title":null,"headshot":"https://s3.amazonaws.com/heysummit-production/media/defaults/user_default_image.png","expert_creds":null,"bio":null,"is_active":true}],"categories":[{"id":187368,"event":5573,"title":"Security Standards","description":""}],"is_active":false,"is_featured":false},{"id":102045,"title":"NCSC - Safe File Import Pattern ( 2pm BST)","date":"2020-06-11T01:45:00","event":"https://api.heysummit.com/api/v2/events/5573/","speakers":[{"id":96274,"event":5573,"first_name":"Paul","last_name":"Burke","company":"Glasswall Solutions","company_title":null,"headshot":"https://s3.amazonaws.com/heysummit-production/media/uploads/events/open-security-summit-2020/4XfNYoTrwVehaTuGvGNzt7.png","expert_creds":"","bio":"","is_active":true},{"id":96191,"event":5573,"first_name":"Luke","last_name":"Robbertse","company":"Glasswall Solutions","company_title":null,"headshot":"https://s3.amazonaws.com/heysummit-production/media/defaults/user_default_image.png","expert_creds":null,"bio":null,"is_active":true}],"categories":[{"id":187368,"event":5573,"title":"Security Standards","description":""}],"is_active":false,"is_featured":false},{"id":97859,"title":"Incident response planning","date":"2020-06-03T10:00:00","event":"https://api.heysummit.com/api/v2/events/5573/","speakers":[{"id":76446,"event":5573,"first_name":"Dinis","last_name":"Cruz","company":"Open Security Summit CIC","company_title":null,"headshot":"https://s3.amazonaws.com/heysummit-production/media/uploads/events/open-security-summit-2020/2TpHAUjVvDQFcpBwmuHqSj.png","expert_creds":"CISO and SVP Engineering at Glasswall, Transformation agent, project leader of OWASP SBot and O2 Platform projects","bio":"Dinis Cruz is the CISO and SVP of engineering of the UK startup Glasswall. Dinis is a Transformation Agent, focused on creating teams and environments where security is an enabler and accelerator for the business, while securing and protecting the digital assets from existing threats. Dinis was nominated for CISO of the Year 2019 at #CyberSecurityAwards\r\n\r\nDinis is also writing a book called Generation Z Developers (but useful for all Generations) available from Amazon:","is_active":true},{"id":76717,"event":5573,"first_name":"Didar","last_name":"Gelici","company":null,"company_title":null,"headshot":"https://s3.amazonaws.com/heysummit-production/media/uploads/events/open-security-summit-2020/poJjQ9rHDxmPujRAeLKzJE.jpeg","expert_creds":"I am a cyber risk manager transitioning into appsec/devsecops. \r\nI am CISSP and CIPP/US but believe the developer led future is already here and want to be here for them to integrate security in their practices rather than gatekeeping and dictating how they should do their job.","bio":"I am deeply involved with three security non-profits, if you would like to collaborate with any of them come talk to me:\r\n Ladies of London Hacking Society - http://llhs.com\r\n SHeCISOExec - https://www.shecisoexec.org/\r\n Open Security Summit - https://open-security-summit.org/","is_active":true},{"id":92641,"event":5573,"first_name":"James","last_name":"Bore","company":null,"company_title":null,"headshot":"https://s3.amazonaws.com/heysummit-production/media/defaults/user_default_image.png","expert_creds":null,"bio":null,"is_active":true},{"id":90439,"event":5573,"first_name":"Ben","last_name":"Schofield","company":null,"company_title":null,"headshot":"https://s3.amazonaws.com/heysummit-production/media/defaults/user_default_image.png","expert_creds":null,"bio":null,"is_active":true}],"categories":[{"id":179491,"event":5573,"title":"Dynamic Sessions","description":"Ad hoc sessions we decide to have to bring drive value from an actual session or a session that is soon to happen"}],"is_active":true,"is_featured":false},{"id":81398,"title":"Test","date":"2020-05-20T16:49:00","event":"https://api.heysummit.com/api/v2/events/5573/","speakers":[{"id":76446,"event":5573,"first_name":"Dinis","last_name":"Cruz","company":"Open Security Summit CIC","company_title":null,"headshot":"https://s3.amazonaws.com/heysummit-production/media/uploads/events/open-security-summit-2020/2TpHAUjVvDQFcpBwmuHqSj.png","expert_creds":"CISO and SVP Engineering at Glasswall, Transformation agent, project leader of OWASP SBot and O2 Platform projects","bio":"Dinis Cruz is the CISO and SVP of engineering of the UK startup Glasswall. Dinis is a Transformation Agent, focused on creating teams and environments where security is an enabler and accelerator for the business, while securing and protecting the digital assets from existing threats. Dinis was nominated for CISO of the Year 2019 at #CyberSecurityAwards\r\n\r\nDinis is also writing a book called Generation Z Developers (but useful for all Generations) available from Amazon:","is_active":true}],"categories":[{"id":156637,"event":5573,"title":"Threat Modeling","description":"Sessions focusing on Threat Modeling\r\nFor beginner level intro to the topic, join the pre-summit training event https://pre-summit-training-sessions.heysummit.com/\r\nIf you missed it, checkout video replays on our youtube channel https://www.youtube.com/channel/UCyse9b_2JLJUxKMLgSpOL-Q/"}],"is_active":false,"is_featured":false},{"id":87504,"title":"Testing functionality - using Zoom meeting rather than Zoom Webinar","date":"2020-05-12T12:30:00","event":"https://api.heysummit.com/api/v2/events/5573/","speakers":[{"id":76717,"event":5573,"first_name":"Didar","last_name":"Gelici","company":null,"company_title":null,"headshot":"https://s3.amazonaws.com/heysummit-production/media/uploads/events/open-security-summit-2020/poJjQ9rHDxmPujRAeLKzJE.jpeg","expert_creds":"I am a cyber risk manager transitioning into appsec/devsecops. \r\nI am CISSP and CIPP/US but believe the developer led future is already here and want to be here for them to integrate security in their practices rather than gatekeeping and dictating how they should do their job.","bio":"I am deeply involved with three security non-profits, if you would like to collaborate with any of them come talk to me:\r\n Ladies of London Hacking Society - http://llhs.com\r\n SHeCISOExec - https://www.shecisoexec.org/\r\n Open Security Summit - https://open-security-summit.org/","is_active":true}],"categories":[],"is_active":false,"is_featured":false},{"id":86834,"title":"Testing functionality - multiple hosts in same session hosted by Didar's zoom","date":"2020-05-12T12:30:00","event":"https://api.heysummit.com/api/v2/events/5573/","speakers":[{"id":76446,"event":5573,"first_name":"Dinis","last_name":"Cruz","company":"Open Security Summit CIC","company_title":null,"headshot":"https://s3.amazonaws.com/heysummit-production/media/uploads/events/open-security-summit-2020/2TpHAUjVvDQFcpBwmuHqSj.png","expert_creds":"CISO and SVP Engineering at Glasswall, Transformation agent, project leader of OWASP SBot and O2 Platform projects","bio":"Dinis Cruz is the CISO and SVP of engineering of the UK startup Glasswall. Dinis is a Transformation Agent, focused on creating teams and environments where security is an enabler and accelerator for the business, while securing and protecting the digital assets from existing threats. Dinis was nominated for CISO of the Year 2019 at #CyberSecurityAwards\r\n\r\nDinis is also writing a book called Generation Z Developers (but useful for all Generations) available from Amazon:","is_active":true},{"id":76717,"event":5573,"first_name":"Didar","last_name":"Gelici","company":null,"company_title":null,"headshot":"https://s3.amazonaws.com/heysummit-production/media/uploads/events/open-security-summit-2020/poJjQ9rHDxmPujRAeLKzJE.jpeg","expert_creds":"I am a cyber risk manager transitioning into appsec/devsecops. \r\nI am CISSP and CIPP/US but believe the developer led future is already here and want to be here for them to integrate security in their practices rather than gatekeeping and dictating how they should do their job.","bio":"I am deeply involved with three security non-profits, if you would like to collaborate with any of them come talk to me:\r\n Ladies of London Hacking Society - http://llhs.com\r\n SHeCISOExec - https://www.shecisoexec.org/\r\n Open Security Summit - https://open-security-summit.org/","is_active":true},{"id":80996,"event":5573,"first_name":"Mario","last_name":"Platt","company":"Practical DevSecOps","company_title":"Strategy Director","headshot":"https://s3.amazonaws.com/heysummit-production/media/uploads/events/open-security-summit-2020/vYfniNyb6D4W8rSvmZ9jDU.jpg","expert_creds":"easonable Assurance against Predictable threats. Infosec / Cyber / Risk Mgt. At the edges of these with Biz, Complexity, Wardley Mapping and SPT","bio":"An accomplished, highly respected and innovative Information Security Expert, with a multi-faceted track record of expertise ranging from penetration testing, operations, product management, design authority, risk management and governance; with success of attaining and maintaining compliance to security frameworks, across Telecommunications, Retail,  Healthcare and Public Sector organisations throughout the last 15+ years.","is_active":true},{"id":76718,"event":5573,"first_name":"Felipe","last_name":"Zipitria","company":null,"company_title":null,"headshot":"https://s3.amazonaws.com/heysummit-production/media/uploads/events/open-security-summit-2020/PRrd8iNj7ddRNQHRZ7z7VN.png","expert_creds":"","bio":"","is_active":true}],"categories":[],"is_active":false,"is_featured":false},{"id":87503,"title":"Testing functionality - multiple sessions -2","date":"2020-05-12T12:25:00","event":"https://api.heysummit.com/api/v2/events/5573/","speakers":[{"id":76717,"event":5573,"first_name":"Didar","last_name":"Gelici","company":null,"company_title":null,"headshot":"https://s3.amazonaws.com/heysummit-production/media/uploads/events/open-security-summit-2020/poJjQ9rHDxmPujRAeLKzJE.jpeg","expert_creds":"I am a cyber risk manager transitioning into appsec/devsecops. \r\nI am CISSP and CIPP/US but believe the developer led future is already here and want to be here for them to integrate security in their practices rather than gatekeeping and dictating how they should do their job.","bio":"I am deeply involved with three security non-profits, if you would like to collaborate with any of them come talk to me:\r\n Ladies of London Hacking Society - http://llhs.com\r\n SHeCISOExec - https://www.shecisoexec.org/\r\n Open Security Summit - https://open-security-summit.org/","is_active":true}],"categories":[],"is_active":false,"is_featured":false}]}