{"count":94,"next":"https://api.heysummit.com/api/talks/?event=5573&page=2","previous":null,"results":[{"id":98446,"title":"Closing Keynote at a virtual pub setting (10pm BST)","date":"2020-06-19T22:00:00","event":"https://api.heysummit.com/api/v2/events/5573/","speakers":[{"id":76446,"event":5573,"first_name":"Dinis","last_name":"Cruz","company":"Open Security Summit CIC","company_title":null,"headshot":"https://s3.amazonaws.com/heysummit-production/media/uploads/events/open-security-summit-2020/2TpHAUjVvDQFcpBwmuHqSj.png","expert_creds":"CISO and SVP Engineering at Glasswall, Transformation agent, project leader of OWASP SBot and O2 Platform projects","bio":"Dinis Cruz is the CISO and SVP of engineering of the UK startup Glasswall. Dinis is a Transformation Agent, focused on creating teams and environments where security is an enabler and accelerator for the business, while securing and protecting the digital assets from existing threats. Dinis was nominated for CISO of the Year 2019 at #CyberSecurityAwards\r\n\r\nDinis is also writing a book called Generation Z Developers (but useful for all Generations) available from Amazon:","is_active":true},{"id":76717,"event":5573,"first_name":"Didar","last_name":"Gelici","company":null,"company_title":null,"headshot":"https://s3.amazonaws.com/heysummit-production/media/uploads/events/open-security-summit-2020/poJjQ9rHDxmPujRAeLKzJE.jpeg","expert_creds":"I am a cyber risk manager transitioning into appsec/devsecops. \r\nI am CISSP and CIPP/US but believe the developer led future is already here and want to be here for them to integrate security in their practices rather than gatekeeping and dictating how they should do their job.","bio":"I am deeply involved with three security non-profits, if you would like to collaborate with any of them come talk to me:\r\n Ladies of London Hacking Society - http://llhs.com\r\n SHeCISOExec - https://www.shecisoexec.org/\r\n Open Security Summit - https://open-security-summit.org/","is_active":true}],"categories":[{"id":178101,"event":5573,"title":"SOCIAL","description":"fun and games"}],"is_active":true,"is_featured":false},{"id":96850,"title":"Experience LeanInAgile (8pm BST)","date":"2020-06-19T20:00:00","event":"https://api.heysummit.com/api/v2/events/5573/","speakers":[{"id":90449,"event":5573,"first_name":"Leila","last_name":"Rao","company":"AgileXtended","company_title":"Founder","headshot":"https://s3.amazonaws.com/heysummit-production/media/defaults/user_default_image.png","expert_creds":"Experienced enterprise Lean-Agile coach\r\nFacilitated agile transformation for cybersecurity teams and initiatives\r\nAuthor of the \"Compass for Agility\"","bio":"Leila is enterprise Lean-Agile consultant who has facilitated sustainable transformations for a wide range of organizations. Her specialty is combining principles from multiple disciplines to co-create customized solutions that amplify value and deliver alignment between business activities and strategic organizational outcomes.\r\n\r\nShe is the author of the Compass for Agility, which explores a pragmatic, multi-disciplinary approach that enables organizations to navigate challenging environments.\r\n \r\nAdditionally, she is now applying the same expertise and her own experiences to increase the value and visibility of women through self-organization, collective empowerment and structural realignment as the co-founder of Lean In Agile.","is_active":true}],"categories":[{"id":178101,"event":5573,"title":"SOCIAL","description":"fun and games"}],"is_active":true,"is_featured":false},{"id":102956,"title":"Security Automation with Python: Boto3 for AWS and Pulumi ( 8pm BST)","date":"2020-06-19T19:45:00","event":"https://api.heysummit.com/api/v2/events/5573/","speakers":[{"id":90417,"event":5573,"first_name":"Petra","last_name":"Vukmirovic","company":"Glasswall Solutions","company_title":"InfoSec","headshot":"https://s3.amazonaws.com/heysummit-production/media/uploads/events/open-security-summit-2020/EBiNh4AHGsVEnubsCyeSW7.jpg","expert_creds":"","bio":"Medical doctor by background, currently Information Security and Digital Forensics Msc student. DevSecOps and Python enthusiast. Into Machine Learning. Hungry for knowledge.","is_active":true}],"categories":[{"id":156635,"event":5573,"title":"DevSecOps","description":"Sessions focusing on the DevSecOps tools and techniques to embed security as part of CI/CD pipelines"}],"is_active":true,"is_featured":false},{"id":97493,"title":"Sense making with Cynefin framework (5pm BST)","date":"2020-06-19T17:00:00","event":"https://api.heysummit.com/api/v2/events/5573/","speakers":[{"id":90458,"event":5573,"first_name":"Phil","last_name":"Huggins","company":"CISO Mentor","company_title":"Director","headshot":"https://s3.amazonaws.com/heysummit-production/media/uploads/events/open-security-summit-2020/LgdnFdYhR6GsEkh6QtGtZR.jpeg","expert_creds":"Resilience, Security Leadership and Risk Science. \r\n\r\nUncon, OWASP, CISO Mentor, Zava. \r\nOpen Information Security Risk Universe: https://oisru.org","bio":"I am a proven security leader providing advice as an independent consultant with over 20 years of experience. I am a delivery-focused, chartered, security and risk professional with extensive experience of governance, management, system engineering and practical architecture across a wide range of disciplines and technologies. I am experienced in briefing and presenting cybersecurity risk concepts to boards and training NEDs.\r\n\r\nI have designed and operated security for critical national infrastructure and sensitive government. I have advised and managed global financial services organisations and advised national regulators on cyber resilience and cybersecurity. I was a member of the Cross Market Operational Resilience Group's Cyber Coordination Group and have also been a private sector representative on multiple occasions to the Financial Stability Board on cybersecurity regulations. I am currently a member of the UK Cyber Policy Working Group advising the Department of Culture, Media and Sport.","is_active":true},{"id":80996,"event":5573,"first_name":"Mario","last_name":"Platt","company":"Practical DevSecOps","company_title":"Strategy Director","headshot":"https://s3.amazonaws.com/heysummit-production/media/uploads/events/open-security-summit-2020/vYfniNyb6D4W8rSvmZ9jDU.jpg","expert_creds":"easonable Assurance against Predictable threats. Infosec / Cyber / Risk Mgt. At the edges of these with Biz, Complexity, Wardley Mapping and SPT","bio":"An accomplished, highly respected and innovative Information Security Expert, with a multi-faceted track record of expertise ranging from penetration testing, operations, product management, design authority, risk management and governance; with success of attaining and maintaining compliance to security frameworks, across Telecommunications, Retail,  Healthcare and Public Sector organisations throughout the last 15+ years.","is_active":true}],"categories":[{"id":171378,"event":5573,"title":"Miscellaneous","description":""}],"is_active":true,"is_featured":false},{"id":101951,"title":"Secure patterns for using CDR in Serverless Environments (5pm BST)","date":"2020-06-19T16:45:00","event":"https://api.heysummit.com/api/v2/events/5573/","speakers":[{"id":96274,"event":5573,"first_name":"Paul","last_name":"Burke","company":"Glasswall Solutions","company_title":null,"headshot":"https://s3.amazonaws.com/heysummit-production/media/uploads/events/open-security-summit-2020/4XfNYoTrwVehaTuGvGNzt7.png","expert_creds":"","bio":"","is_active":true}],"categories":[{"id":194181,"event":5573,"title":"CDR","description":""}],"is_active":true,"is_featured":false},{"id":106919,"title":"Using OWASP at COvid Safe Paths (5pm BST)","date":"2020-06-19T16:45:00","event":"https://api.heysummit.com/api/v2/events/5573/","speakers":[{"id":76446,"event":5573,"first_name":"Dinis","last_name":"Cruz","company":"Open Security Summit CIC","company_title":null,"headshot":"https://s3.amazonaws.com/heysummit-production/media/uploads/events/open-security-summit-2020/2TpHAUjVvDQFcpBwmuHqSj.png","expert_creds":"CISO and SVP Engineering at Glasswall, Transformation agent, project leader of OWASP SBot and O2 Platform projects","bio":"Dinis Cruz is the CISO and SVP of engineering of the UK startup Glasswall. Dinis is a Transformation Agent, focused on creating teams and environments where security is an enabler and accelerator for the business, while securing and protecting the digital assets from existing threats. Dinis was nominated for CISO of the Year 2019 at #CyberSecurityAwards\r\n\r\nDinis is also writing a book called Generation Z Developers (but useful for all Generations) available from Amazon:","is_active":true},{"id":101097,"event":5573,"first_name":"Adam Leon","last_name":"Smith","company":null,"company_title":null,"headshot":"https://s3.amazonaws.com/heysummit-production/media/defaults/user_default_image.png","expert_creds":null,"bio":null,"is_active":true}],"categories":[{"id":193845,"event":5573,"title":"Covid","description":""}],"is_active":true,"is_featured":false},{"id":97881,"title":"Post-mortem of the incident exercise (2pm BST)","date":"2020-06-19T14:00:00","event":"https://api.heysummit.com/api/v2/events/5573/","speakers":[{"id":76446,"event":5573,"first_name":"Dinis","last_name":"Cruz","company":"Open Security Summit CIC","company_title":null,"headshot":"https://s3.amazonaws.com/heysummit-production/media/uploads/events/open-security-summit-2020/2TpHAUjVvDQFcpBwmuHqSj.png","expert_creds":"CISO and SVP Engineering at Glasswall, Transformation agent, project leader of OWASP SBot and O2 Platform projects","bio":"Dinis Cruz is the CISO and SVP of engineering of the UK startup Glasswall. Dinis is a Transformation Agent, focused on creating teams and environments where security is an enabler and accelerator for the business, while securing and protecting the digital assets from existing threats. Dinis was nominated for CISO of the Year 2019 at #CyberSecurityAwards\r\n\r\nDinis is also writing a book called Generation Z Developers (but useful for all Generations) available from Amazon:","is_active":true},{"id":76717,"event":5573,"first_name":"Didar","last_name":"Gelici","company":null,"company_title":null,"headshot":"https://s3.amazonaws.com/heysummit-production/media/uploads/events/open-security-summit-2020/poJjQ9rHDxmPujRAeLKzJE.jpeg","expert_creds":"I am a cyber risk manager transitioning into appsec/devsecops. \r\nI am CISSP and CIPP/US but believe the developer led future is already here and want to be here for them to integrate security in their practices rather than gatekeeping and dictating how they should do their job.","bio":"I am deeply involved with three security non-profits, if you would like to collaborate with any of them come talk to me:\r\n Ladies of London Hacking Society - http://llhs.com\r\n SHeCISOExec - https://www.shecisoexec.org/\r\n Open Security Summit - https://open-security-summit.org/","is_active":true},{"id":90460,"event":5573,"first_name":"Tony","last_name":"Richards","company":"EY","company_title":"Technical Director","headshot":"https://s3.amazonaws.com/heysummit-production/media/uploads/events/open-security-summit-2020/ftS2ErEq2mtPH6xETjuidH.png","expert_creds":"Security Strategist, vCISO, Cloud Security Evangelist, Privacy Champion, Wardley Mapper. #Settler, #GdsTeam #GCloud #MoJ #CLAS #Veteran","bio":"","is_active":true},{"id":92641,"event":5573,"first_name":"James","last_name":"Bore","company":null,"company_title":null,"headshot":"https://s3.amazonaws.com/heysummit-production/media/defaults/user_default_image.png","expert_creds":null,"bio":null,"is_active":true},{"id":90439,"event":5573,"first_name":"Ben","last_name":"Schofield","company":null,"company_title":null,"headshot":"https://s3.amazonaws.com/heysummit-production/media/defaults/user_default_image.png","expert_creds":null,"bio":null,"is_active":true}],"categories":[{"id":179491,"event":5573,"title":"Dynamic Sessions","description":"Ad hoc sessions we decide to have to bring drive value from an actual session or a session that is soon to happen"}],"is_active":true,"is_featured":false},{"id":104439,"title":"What OWASP tools/projects we already have and what are we missing to deliver secure devops  pipelines (2pm BST)","date":"2020-06-19T13:45:00","event":"https://api.heysummit.com/api/v2/events/5573/","speakers":[{"id":98400,"event":5573,"first_name":"Daniel","last_name":"Cuthbert","company":null,"company_title":null,"headshot":"https://s3.amazonaws.com/heysummit-production/media/uploads/events/open-security-summit-2020/j4wGXidTB84J2tBkFHfnwn.jpg","expert_creds":"Documentary photographer, Old creaky hacker. Co-author of the @OWASP\r\n ASVS standard. Blackhat/Brucon/DevSecCon Review Board. Don't speak for anyone but myself.","bio":"","is_active":true},{"id":96790,"event":5573,"first_name":"Andrew","last_name":"van der Stock","company":"OWASP","company_title":null,"headshot":"https://s3.amazonaws.com/heysummit-production/media/uploads/events/open-security-summit-2020/FtMLa9VkZBVSgq9ukVoYPE.jpeg","expert_creds":"","bio":"","is_active":true}],"categories":[{"id":156635,"event":5573,"title":"DevSecOps","description":"Sessions focusing on the DevSecOps tools and techniques to embed security as part of CI/CD pipelines"},{"id":171377,"event":5573,"title":"OWASP ASVS","description":"Sessions focusing on Application Security Verification Standard (ASVS)\r\nhttps://owasp.org/www-project-application-security-verification-standard/"}],"is_active":true,"is_featured":false},{"id":101965,"title":"Secure patterns for CDR integration with Web Proxys and Email Providers ( 2pm BST)","date":"2020-06-19T13:45:00","event":"https://api.heysummit.com/api/v2/events/5573/","speakers":[{"id":96274,"event":5573,"first_name":"Paul","last_name":"Burke","company":"Glasswall Solutions","company_title":null,"headshot":"https://s3.amazonaws.com/heysummit-production/media/uploads/events/open-security-summit-2020/4XfNYoTrwVehaTuGvGNzt7.png","expert_creds":"","bio":"","is_active":true}],"categories":[{"id":194181,"event":5573,"title":"CDR","description":""}],"is_active":true,"is_featured":false},{"id":102942,"title":"Chef Inspec Compliance as Code checks for those that can be checked (2pm BST)","date":"2020-06-19T13:45:00","event":"https://api.heysummit.com/api/v2/events/5573/","speakers":[{"id":90419,"event":5573,"first_name":"Steven","last_name":"Wierckx","company":null,"company_title":null,"headshot":"https://s3.amazonaws.com/heysummit-production/media/defaults/user_default_image.png","expert_creds":"","bio":"","is_active":true},{"id":76718,"event":5573,"first_name":"Felipe","last_name":"Zipitria","company":null,"company_title":null,"headshot":"https://s3.amazonaws.com/heysummit-production/media/uploads/events/open-security-summit-2020/PRrd8iNj7ddRNQHRZ7z7VN.png","expert_creds":"","bio":"","is_active":true}],"categories":[{"id":156635,"event":5573,"title":"DevSecOps","description":"Sessions focusing on the DevSecOps tools and techniques to embed security as part of CI/CD pipelines"}],"is_active":true,"is_featured":false}]}