{"count":94,"next":"https://api.heysummit.com/api/talks/?event=5573&page=9","previous":"https://api.heysummit.com/api/talks/?event=5573&page=7","results":[{"id":95865,"title":"Landscape and trends assessment","date":"2020-06-15T14:00:00","event":"https://api.heysummit.com/api/v2/events/5573/","speakers":[],"categories":[{"id":156639,"event":5573,"title":"Wardley Maps","description":"Sessions focusing on the use of Wardley Maps in Security"}],"is_active":false,"is_featured":false},{"id":95877,"title":"OWASP Juice Shop Deep Dive: Integration","date":"2020-06-15T14:00:00","event":"https://api.heysummit.com/api/v2/events/5573/","speakers":[{"id":81716,"event":5573,"first_name":"Bjoern","last_name":"Kimminich","company":"OWASP","company_title":"Juice Shop Project Leader","headshot":"https://s3.amazonaws.com/heysummit-production/media/uploads/events/open-security-summit-2020/Mfiv59zF4yozxohCFxR2cP.jpg","expert_creds":"Björn is the project leader and with >11k commits main author of the OWASP Juice Shop.","bio":"Björn works as the Product Group Lead Architecture Governance + Application Security at Kuehne + Nagel (AG & Co.) KG. He gives IT Security lectures at the private university NORDAKADEMIE. Apart from his activity on OWASP Juice Shop he is also a board member for the German OWASP chapter.","is_active":true}],"categories":[{"id":171375,"event":5573,"title":"OWASP JuiceShop","description":""}],"is_active":false,"is_featured":false},{"id":86696,"title":"OWASP Juice Shop Deep Dive: Integration (2pm BST)","date":"2020-06-15T13:45:00","event":"https://api.heysummit.com/api/v2/events/5573/","speakers":[{"id":81716,"event":5573,"first_name":"Bjoern","last_name":"Kimminich","company":"OWASP","company_title":"Juice Shop Project Leader","headshot":"https://s3.amazonaws.com/heysummit-production/media/uploads/events/open-security-summit-2020/Mfiv59zF4yozxohCFxR2cP.jpg","expert_creds":"Björn is the project leader and with >11k commits main author of the OWASP Juice Shop.","bio":"Björn works as the Product Group Lead Architecture Governance + Application Security at Kuehne + Nagel (AG & Co.) KG. He gives IT Security lectures at the private university NORDAKADEMIE. Apart from his activity on OWASP Juice Shop he is also a board member for the German OWASP chapter.","is_active":true}],"categories":[{"id":171375,"event":5573,"title":"OWASP JuiceShop","description":""}],"is_active":true,"is_featured":false},{"id":95867,"title":"WARDLEY MAPPING COVID SAFE PATHS APP (2pm BST) - 2 Chilli","date":"2020-06-15T13:45:00","event":"https://api.heysummit.com/api/v2/events/5573/","speakers":[{"id":76446,"event":5573,"first_name":"Dinis","last_name":"Cruz","company":"Open Security Summit CIC","company_title":null,"headshot":"https://s3.amazonaws.com/heysummit-production/media/uploads/events/open-security-summit-2020/2TpHAUjVvDQFcpBwmuHqSj.png","expert_creds":"CISO and SVP Engineering at Glasswall, Transformation agent, project leader of OWASP SBot and O2 Platform projects","bio":"Dinis Cruz is the CISO and SVP of engineering of the UK startup Glasswall. Dinis is a Transformation Agent, focused on creating teams and environments where security is an enabler and accelerator for the business, while securing and protecting the digital assets from existing threats. Dinis was nominated for CISO of the Year 2019 at #CyberSecurityAwards\r\n\r\nDinis is also writing a book called Generation Z Developers (but useful for all Generations) available from Amazon:","is_active":true},{"id":81711,"event":5573,"first_name":"Simon","last_name":"Wardley","company":null,"company_title":null,"headshot":"https://s3.amazonaws.com/heysummit-production/media/uploads/events/open-security-summit-2020/hRofkrwURS8NvG2GxZ6wLD.jpg","expert_creds":"I like ducks, they're fowl but not through choice.  Created #Wardleymaps ... not the hashtag but the field. Chaotic Evil, Thought Lord. RT ≠ +1","bio":"Explorer of uncharted spaces. Twice voted in the UKTech50, Judge in Nesta's Open Banking and Netflix's Open Source competitions, Co-Chair of OSCON Europe, Cloud Camp and Map Camp. Regular speaker on the global tech circuit.","is_active":true},{"id":101097,"event":5573,"first_name":"Adam Leon","last_name":"Smith","company":null,"company_title":null,"headshot":"https://s3.amazonaws.com/heysummit-production/media/defaults/user_default_image.png","expert_creds":null,"bio":null,"is_active":true}],"categories":[{"id":156639,"event":5573,"title":"Wardley Maps","description":"Sessions focusing on the use of Wardley Maps in Security"}],"is_active":true,"is_featured":false},{"id":101171,"title":"Beating the 1:100 Odds - Team Topologies for Security (2pm BST)","date":"2020-06-15T13:45:00","event":"https://api.heysummit.com/api/v2/events/5573/","speakers":[{"id":80996,"event":5573,"first_name":"Mario","last_name":"Platt","company":"Practical DevSecOps","company_title":"Strategy Director","headshot":"https://s3.amazonaws.com/heysummit-production/media/uploads/events/open-security-summit-2020/vYfniNyb6D4W8rSvmZ9jDU.jpg","expert_creds":"easonable Assurance against Predictable threats. Infosec / Cyber / Risk Mgt. At the edges of these with Biz, Complexity, Wardley Mapping and SPT","bio":"An accomplished, highly respected and innovative Information Security Expert, with a multi-faceted track record of expertise ranging from penetration testing, operations, product management, design authority, risk management and governance; with success of attaining and maintaining compliance to security frameworks, across Telecommunications, Retail,  Healthcare and Public Sector organisations throughout the last 15+ years.","is_active":true},{"id":90490,"event":5573,"first_name":"Manuel","last_name":"Pais","company":null,"company_title":null,"headshot":"https://s3.amazonaws.com/heysummit-production/media/uploads/events/open-security-summit-2020/zXsu2Lbyh6q2ThYztsopH3.jpg","expert_creds":"","bio":"Manuel Pais is co-author of Team Topologies: organizing business and technology teams for fast flow. Recognized by TechBeacon as a DevOps thought leader, Manuel is an independent IT organizational consultant and trainer, focused on team interactions, delivery practices and accelerating flow. Manuel is also a LinkedIn instructor on Accelerating Continuous Delivery in the Enterprise.\r\n\r\nMatio Platt has over 18 years of security experience and roles spanning penetration testing, operations, engineering and Governance, Risk Management and Compliance. Mario is known for his Strategic thinking and pragmatic approaches often bridging the communication gap between technical and governance professionals to enable real collaboration. In his consulting work, Mario typically works directly with everyone from C-suite executives to Developers and other front-line staff, helping develop and deliver security programmes.","is_active":true}],"categories":[{"id":156632,"event":5573,"title":"CISO and Risk Management","description":"Sessions focusing on CISO areas of concern and making security scale"},{"id":156635,"event":5573,"title":"DevSecOps","description":"Sessions focusing on the DevSecOps tools and techniques to embed security as part of CI/CD pipelines"}],"is_active":true,"is_featured":false},{"id":95522,"title":"Lightning Talk - Why your corporate IT needs to look a lot more like consumer IT (1:40pm BST)","date":"2020-06-15T13:40:00","event":"https://api.heysummit.com/api/v2/events/5573/","speakers":[{"id":90202,"event":5573,"first_name":"James","last_name":"Duncan","company":"Stance Global","company_title":"Founder","headshot":"https://s3.amazonaws.com/heysummit-production/media/uploads/events/open-security-summit-2020/YpaMPCttSvKuXU3xipr9uc.jpg","expert_creds":"Technology, Governments & Policy; Helping organisations reorganise to deal with the world as it is so that we can make it the way we want it to be.","bio":"Specialities: digital transformation, IT strategy, scaling, web, software architecture, small groups of smart people, HTTP, speaking to business and technology leaders.","is_active":true}],"categories":[{"id":156632,"event":5573,"title":"CISO and Risk Management","description":"Sessions focusing on CISO areas of concern and making security scale"}],"is_active":true,"is_featured":false},{"id":86695,"title":"OWASP Juice Shop Deep Dive: Theming","date":"2020-06-15T11:00:00","event":"https://api.heysummit.com/api/v2/events/5573/","speakers":[],"categories":[],"is_active":false,"is_featured":false},{"id":95837,"title":"Wardley Maps Introduction by Simon Wardley- (BST 11:00 / EST 06:00 / SGT 19:00) - 1 Chilli","date":"2020-06-15T10:45:00","event":"https://api.heysummit.com/api/v2/events/5573/","speakers":[{"id":81711,"event":5573,"first_name":"Simon","last_name":"Wardley","company":null,"company_title":null,"headshot":"https://s3.amazonaws.com/heysummit-production/media/uploads/events/open-security-summit-2020/hRofkrwURS8NvG2GxZ6wLD.jpg","expert_creds":"I like ducks, they're fowl but not through choice.  Created #Wardleymaps ... not the hashtag but the field. Chaotic Evil, Thought Lord. RT ≠ +1","bio":"Explorer of uncharted spaces. Twice voted in the UKTech50, Judge in Nesta's Open Banking and Netflix's Open Source competitions, Co-Chair of OSCON Europe, Cloud Camp and Map Camp. Regular speaker on the global tech circuit.","is_active":true}],"categories":[{"id":156639,"event":5573,"title":"Wardley Maps","description":"Sessions focusing on the use of Wardley Maps in Security"}],"is_active":true,"is_featured":true},{"id":98038,"title":"Threat Personas and Application Vulnerability Scoring Model (11am BST)","date":"2020-06-15T10:45:00","event":"https://api.heysummit.com/api/v2/events/5573/","speakers":[{"id":90458,"event":5573,"first_name":"Phil","last_name":"Huggins","company":"CISO Mentor","company_title":"Director","headshot":"https://s3.amazonaws.com/heysummit-production/media/uploads/events/open-security-summit-2020/LgdnFdYhR6GsEkh6QtGtZR.jpeg","expert_creds":"Resilience, Security Leadership and Risk Science. \r\n\r\nUncon, OWASP, CISO Mentor, Zava. \r\nOpen Information Security Risk Universe: https://oisru.org","bio":"I am a proven security leader providing advice as an independent consultant with over 20 years of experience. I am a delivery-focused, chartered, security and risk professional with extensive experience of governance, management, system engineering and practical architecture across a wide range of disciplines and technologies. I am experienced in briefing and presenting cybersecurity risk concepts to boards and training NEDs.\r\n\r\nI have designed and operated security for critical national infrastructure and sensitive government. I have advised and managed global financial services organisations and advised national regulators on cyber resilience and cybersecurity. I was a member of the Cross Market Operational Resilience Group's Cyber Coordination Group and have also been a private sector representative on multiple occasions to the Financial Stability Board on cybersecurity regulations. I am currently a member of the UK Cyber Policy Working Group advising the Department of Culture, Media and Sport.","is_active":true},{"id":92767,"event":5573,"first_name":"Robin","last_name":"Oldham","company":"Cydea","company_title":"Director","headshot":"https://s3.amazonaws.com/heysummit-production/media/uploads/events/open-security-summit-2020/CHtxHD5rpCYoNPM2fN6FaU.jpg","expert_creds":"","bio":"","is_active":true}],"categories":[{"id":156632,"event":5573,"title":"CISO and Risk Management","description":"Sessions focusing on CISO areas of concern and making security scale"},{"id":156637,"event":5573,"title":"Threat Modeling","description":"Sessions focusing on Threat Modeling\r\nFor beginner level intro to the topic, join the pre-summit training event https://pre-summit-training-sessions.heysummit.com/\r\nIf you missed it, checkout video replays on our youtube channel https://www.youtube.com/channel/UCyse9b_2JLJUxKMLgSpOL-Q/"}],"is_active":true,"is_featured":false},{"id":95876,"title":"OWASP Juice Shop Deep Dive: Theming (11am BST)","date":"2020-06-15T10:45:00","event":"https://api.heysummit.com/api/v2/events/5573/","speakers":[{"id":81716,"event":5573,"first_name":"Bjoern","last_name":"Kimminich","company":"OWASP","company_title":"Juice Shop Project Leader","headshot":"https://s3.amazonaws.com/heysummit-production/media/uploads/events/open-security-summit-2020/Mfiv59zF4yozxohCFxR2cP.jpg","expert_creds":"Björn is the project leader and with >11k commits main author of the OWASP Juice Shop.","bio":"Björn works as the Product Group Lead Architecture Governance + Application Security at Kuehne + Nagel (AG & Co.) KG. He gives IT Security lectures at the private university NORDAKADEMIE. Apart from his activity on OWASP Juice Shop he is also a board member for the German OWASP chapter.","is_active":true}],"categories":[{"id":171375,"event":5573,"title":"OWASP JuiceShop","description":""}],"is_active":true,"is_featured":false}]}